Η R για την Επιστήμη των Δεδομένων (2η έκδοση) - 22 Arrow
…
Μπορούμε να αρχίσουμε να χρησιμοποιούμε αυτό το σύνολο δεδομένων με συναρτήσεις του πακέτου dplyr, χρησιμοποιώντας την collect() για να αναγκάσουμε το arrow να εκτελέσει τον υπολογισμό και να επιστρέψει κάποια δεδομένα. Για παράδειγμα, αυτός ο κωδικός μας λέει τον συνολικό αριθμό δανεισμών ανά έτος:

seattle_csv |> 
  group_by(CheckoutYear) |> 
  summarise(Checkouts = sum(Checkouts)) |> 
  arrange(CheckoutYear) |> 
  collect()
#> # A tibble: 18 × 2
#>   CheckoutYear Checkouts
#>          <int>     <int>
#> 1         2005   3798685
#> 2         2006   6599318
#> 3         2007   7126627
#> 4         2008   8438486
#> 5         2009   9135167
#> 6         2010   8608966
#> # ℹ 12 more rows
…
pq_path <- "data/seattle-library-checkouts"

seattle_csv |>
  group_by(CheckoutYear) |>
  write_dataset(path = pq_path, format = "parquet")

Αυτό παίρνει περίπου ένα λεπτό για να τρέξει. Όπως θα δούμε σύντομα αυτή είναι μία αρχική επένδυση που αποδίδει καρπούς κάνοντας μελλοντικές εργασίες πολύ πολύ πιο γρήγορες.

Ας ρίξουμε μία ματιά σε αυτό που μόλις δημιουργήσαμε:

tibble(
  files = list.files(pq_path, recursive = TRUE),
  size_MB = file.size(file.path(pq_path, files)) / 1024^2
)
#> # A tibble: 18 × 2
#>   files                            size_MB
#>   <chr>                              <dbl>
#> 1 CheckoutYear=2005/part-0.parquet    109.
#> 2 CheckoutYear=2006/part-0.parquet    164.
#> 3 CheckoutYear=2007/part-0.parquet    178.
#> 4 CheckoutYear=2008/part-0.parquet    195.
#> 5 CheckoutYear=2009/part-0.parquet    214.
#> 6 CheckoutYear=2010/part-0.parquet    222.
#> # ℹ 12 more rows
…
query
#> FileSystemDataset (query)
#> CheckoutYear: int32
#> CheckoutMonth: int64
#> TotalCheckouts: int64
#> 
#> * Grouped by CheckoutYear
#> * Sorted by CheckoutYear [asc], CheckoutMonth [asc]
#> See $.data for the source Arrow object

Και μπορούμε να πάρουμε τα αποτελέσματα καλώντας την collect():

query |> collect()
#> # A tibble: 58 × 3
#> # Groups:   CheckoutYear [5]
#>   CheckoutYear CheckoutMonth TotalCheckouts
#>          <int>         <int>          <int>
#> 1         2018             1         355101
#> 2         2018             2         309813
#> 3         2018             3         344487
#> 4         2018             4         330988
#> 5         2018             5         318049
#> 6         2018             6         341825
#> # ℹ 52 more rows
…
