Η R για την Επιστήμη των Δεδομένων (2η έκδοση) - 27 Ένας οδηγός για το βασικό σύνολο λειτουργιών της R
…
Στη συνέχεια, αντί να επαναλαμβάνουμε τις διαδικασίες μας στα στοιχεία του paths, θα τις επαναλαμβάνουμε στους δείκτες τους, χρησιμοποιώντας τη seq_along() για να δημιουργήσουμε ένα ευρετήριο για κάθε στοιχείο του paths:

seq_along(paths)
#>  [1]  1  2  3  4  5  6  7  8  9 10 11 12

Η χρήση των δεικτών είναι σημαντική γιατί μας επιτρέπει να συνδέσουμε κάθε θέση στην είσοδο με την αντίστοιχη θέση στην έξοδο:

for (i in seq_along(paths)) {
  files[[i]] <- readxl::read_excel(paths[[i]])
}

Για να συνδυάσετε τη λίστα των tibbles σε ένα μόνο tibble, μπορείτε να χρησιμοποιήσετε τις do.call() + rbind():

do.call(rbind, files)
#> # A tibble: 1,704 × 5
#>   country     continent lifeExp      pop gdpPercap
#>   <chr>       <chr>       <dbl>    <dbl>     <dbl>
#> 1 Afghanistan Asia         28.8  8425333      779.
#> 2 Albania     Europe       55.2  1282697     1601.
#> 3 Algeria     Africa       43.1  9279525     2449.
#> 4 Angola      Africa       30.0  4232095     3521.
#> 5 Argentina   Americas     62.5 17876956     5911.
#> 6 Australia   Oceania      69.1  8691212    10040.
#> # ℹ 1,698 more rows
…
