Η R για την Επιστήμη των Δεδομένων (2η έκδοση) - 3 Μετασχηματισμός Δεδομένων
…
Παρατηρήστε προσεκτικά το μήνυμα συγκρούσεων που εκτυπώνεται όταν φορτώνετε το tidyverse. Σας λέει ότι το πακέτο dplyr αντικαθιστά ορισμένες συναρτήσεις από το βασικό σύνολο λειτουργιών της R. Εάν θέλετε να χρησιμοποιήσετε τη βασική έκδοση αυτών των συναρτήσεων μετά τη φόρτωση της dplyr, θα πρέπει να χρησιμοποιήσετε τα πλήρη ονόματά τους: stats::filter() και stats::lag(). Μέχρι στιγμής έχουμε αγνοήσει από ποιο πακέτο προέρχεται μία συνάρτηση γιατί τις περισσότερες φορές δεν έχει σημασία. Ωστόσο, η γνώση του πακέτου μπορεί να σας βοηθήσει να αναζητήσετε βοήθεια και να βρείτε σχετικές συναρτήσεις, οπότε όταν πρέπει να είμαστε ακριβείς σχετικά με το πακέτο από το οποίο προέρχεται μία συνάρτηση, θα χρησιμοποιήσουμε την ίδια σύνταξη με την R: packagename::functionname().

3.1.2 nycflights13

Για να εξερευνήσουμε τις βασικές συναρτήσεις της dplyr, θα χρησιμοποιήσουμε το σύνολο δεδομένων nycflights13::flights. Αυτό περιέχει όλες τις 336,776 πτήσεις που αναχώρησαν από την πόλη της Νέας Υόρκης το 2013. Αυτά τα δεδομένα προέρχονται από το Γραφείο Στατιστικών Μεταφορών των ΗΠΑ και τεκμηριώνονται στο ?flights.

flights
#> # A tibble: 336,776 × 19
#>    year month   day dep_time sched_dep_time dep_delay arr_time sched_arr_time
#>   <int> <int> <int>    <int>          <int>     <dbl>    <int>          <int>
#> 1  2013     1     1      517            515         2      830            819
#> 2  2013     1     1      533            529         4      850            830
#> 3  2013     1     1      542            540         2      923            850
#> 4  2013     1     1      544            545        -1     1004           1022
#> 5  2013     1     1      554            600        -6      812            837
#> 6  2013     1     1      554            558        -4      740            728
#> # ℹ 336,770 more rows
#> # ℹ 11 more variables: arr_delay <dbl>, carrier <chr>, flight <int>, …
…
Οι συναρτήσεις της dplyr οργανώνονται σε τέσσερις ομάδες με βάση το σε τι εφαρμόζονται: γραμμές, στήλες, ομάδες ή πίνακες. Στις επόμενες ενότητες θα μάθετε τις πιο σημαντικές συναρτήσεις για γραμμές, στήλες και ομάδες και, στη συνέχεια, θα επιστρέψουμε στις συναρτήσεις join που λειτουργούν σε πίνακες στο Κεφάλαιο 19. Ας αρχίσουμε!

3.2 Γραμμές

Οι πιο σημαντικές συναρτήσεις που λειτουργούν στις γραμμές ενός συνόλου δεδομένων είναι η filter(), η οποία αλλάζει το ποιες γραμμές θα παρουσιάζονται χωρίς να αλλάξει τη σειρά τους και η arrange(), η οποία αλλάζει τη σειρά των γραμμών χωρίς να αλλάζει ποιες υπάρχουν. Και οι δύο συναρτήσεις επηρεάζουν μόνο τις γραμμές και οι στήλες παραμένουν αμετάβλητες. Θα συζητήσουμε επίσης και την distinct() που βρίσκει γραμμές με μοναδικές τιμές αλλά σε αντίθεση με την arrange() και την filter() μπορεί επίσης να τροποποιήσει προαιρετικά τις στήλες.

3.2.1 filter()

Η filter() σας επιτρέπει να διατηρείτε γραμμές με βάση τις τιμές των στηλών1. Το πρώτο όρισμα είναι το πλαίσιο δεδομένων. Το δεύτερο και τα επόμενα ορίσματα είναι οι συνθήκες που πρέπει να ισχύουν για να διατηρηθεί η σειρά. Για παράδειγμα, θα μπορούσαμε να βρούμε όλες τις πτήσεις που αναχώρησαν με καθυστέρηση μεγαλύτερη των 120 λεπτών (δύο ώρες):

flights |> 
  filter(dep_delay > 120)
#> # A tibble: 9,723 × 19
#>    year month   day dep_time sched_dep_time dep_delay arr_time sched_arr_time
#>   <int> <int> <int>    <int>          <int>     <dbl>    <int>          <int>
#> 1  2013     1     1      848           1835       853     1001           1950
#> 2  2013     1     1      957            733       144     1056            853
#> 3  2013     1     1     1114            900       134     1447           1222
#> 4  2013     1     1     1540           1338       122     2020           1825
#> 5  2013     1     1     1815           1325       290     2120           1542
#> 6  2013     1     1     1842           1422       260     1958           1535
#> # ℹ 9,717 more rows
#> # ℹ 11 more variables: arr_delay <dbl>, carrier <chr>, flight <int>, …

Εκτός από το > (μεγαλύτερο από), μπορείτε να χρησιμοποιήσετε και το >= (μεγαλύτερο ή ίσο με), το< (μικρότερο από), το <=(μικρότερο από ή ίσο με), το == (ίσο με), και το != (διαφορετικό). Μπορείτε επίσης να συνδυάσετε συνθήκες με & ή , για να υποδείξετε το “και” (έλεγχος και για τις δύο συνθήκες) ή με | για να υποδείξετε το “ή” (έλεγχος για οποιαδήποτε από τις δύο συνθήκες):

# Πτήσεις που αναχώρησαν την 1η Ιανουαρίου
flights |> 
  filter(month == 1 & day == 1)
#> # A tibble: 842 × 19
#>    year month   day dep_time sched_dep_time dep_delay arr_time sched_arr_time
#>   <int> <int> <int>    <int>          <int>     <dbl>    <int>          <int>
#> 1  2013     1     1      517            515         2      830            819
#> 2  2013     1     1      533            529         4      850            830
#> 3  2013     1     1      542            540         2      923            850
#> 4  2013     1     1      544            545        -1     1004           1022
#> 5  2013     1     1      554            600        -6      812            837
#> 6  2013     1     1      554            558        -4      740            728
#> # ℹ 836 more rows
#> # ℹ 11 more variables: arr_delay <dbl>, carrier <chr>, flight <int>, …

# Πτήσεις που αναχώρησαν τον Ιανουάριο ή τον Φεβρουάριο
flights |> 
  filter(month == 1 | month == 2)
#> # A tibble: 51,955 × 19
#>    year month   day dep_time sched_dep_time dep_delay arr_time sched_arr_time
#>   <int> <int> <int>    <int>          <int>     <dbl>    <int>          <int>
#> 1  2013     1     1      517            515         2      830            819
#> 2  2013     1     1      533            529         4      850            830
#> 3  2013     1     1      542            540         2      923            850
#> 4  2013     1     1      544            545        -1     1004           1022
#> 5  2013     1     1      554            600        -6      812            837
#> 6  2013     1     1      554            558        -4      740            728
#> # ℹ 51,949 more rows
#> # ℹ 11 more variables: arr_delay <dbl>, carrier <chr>, flight <int>, …

Υπάρχει μία χρήσιμη συντόμευση όταν συνδυάζετε τα | και ==: το %in%. Διατηρεί γραμμές όπου η μεταβλητή ισούται με μία από τις τιμές στα δεξιά:

# Ένας πιο σύντομος τρόπος για να επιλέξετε πτήσεις που αναχώρησαν τον Ιανουάριο ή τον Φεβρουάριο
flights |> 
  filter(month %in% c(1, 2))
#> # A tibble: 51,955 × 19
#>    year month   day dep_time sched_dep_time dep_delay arr_time sched_arr_time
#>   <int> <int> <int>    <int>          <int>     <dbl>    <int>          <int>
#> 1  2013     1     1      517            515         2      830            819
#> 2  2013     1     1      533            529         4      850            830
#> 3  2013     1     1      542            540         2      923            850
#> 4  2013     1     1      544            545        -1     1004           1022
#> 5  2013     1     1      554            600        -6      812            837
#> 6  2013     1     1      554            558        -4      740            728
#> # ℹ 51,949 more rows
#> # ℹ 11 more variables: arr_delay <dbl>, carrier <chr>, flight <int>, …
…
Άλλο ένα κοινό λάθος είναι ότι γράφετε “or” δηλώσεις όπως θα κάνατε στα αγγλικά:

flights |> 
  filter(month == 1 | 2)

Ο παραπάνω κώδικας “δουλεύει”, με την έννοια ότι δεν επιστρέφει σφάλμα, αλλά δεν κάνει αυτό που θέλετε επειδή το | ελέγχει πρώτα τη συνθήκη month == 1 και μετά ελέγχει τη συνθήκη 2, η οποία δεν είναι μία λογική συνθήκη για έλεγχο. Θα μάθουμε περισσότερα για το τι συμβαίνει εδώ και γιατί στην Ενότητα 15.6.2.

3.2.3 arrange()

Η arrange() αλλάζει τη σειρά των γραμμών με βάση την τιμή των στηλών. Δέχεται σαν ορίσματα ένα πλαίσιο δεδομένων και ένα σύνολο ονομάτων στηλών (ή πιο περίπλοκων εκφράσεων) για να τα ταξινομήσετε. Εάν παρέχετε περισσότερα από ένα ονόματα στηλών, κάθε πρόσθετη στήλη θα χρησιμοποιηθεί για την επίλυση ισοπαλιών στις τιμές των προηγούμενων στηλών. Για παράδειγμα, ο παρακάτω κώδικας ταξινομεί τις γραμμές με βάση την ώρα αναχώρησης, η οποία κατανέμεται σε τέσσερις στήλες. Πρώτα παίρνουμε τα πιο πρόσφατα χρόνια, και στη συνέχεια ανάμεσα σε ένα χρόνο τους πρώτους μήνες κ.ο.κ.

flights |> 
  arrange(year, month, day, dep_time)
#> # A tibble: 336,776 × 19
#>    year month   day dep_time sched_dep_time dep_delay arr_time sched_arr_time
#>   <int> <int> <int>    <int>          <int>     <dbl>    <int>          <int>
#> 1  2013     1     1      517            515         2      830            819
#> 2  2013     1     1      533            529         4      850            830
#> 3  2013     1     1      542            540         2      923            850
#> 4  2013     1     1      544            545        -1     1004           1022
#> 5  2013     1     1      554            600        -6      812            837
#> 6  2013     1     1      554            558        -4      740            728
#> # ℹ 336,770 more rows
#> # ℹ 11 more variables: arr_delay <dbl>, carrier <chr>, flight <int>, …

Μπορείτε να χρησιμοποιήσετε το όρισμα desc() σε μία στήλη μέσα στην arrange() για να αναδιατάξετε το πλαίσιο δεδομένων με βάση αυτή τη στήλη με φθίνουσα σειρά (μεγαλύτερο προς μικρότερο). Για παράδειγμα, ο ακόλουθος κώδικας διατάσσει τις πτήσεις ανάλογα με την καθυστέρηση που έχουν σημειώσει, από τις μεγαλύτερες έως τις μικρότερες:

flights |> 
  arrange(desc(dep_delay))
#> # A tibble: 336,776 × 19
#>    year month   day dep_time sched_dep_time dep_delay arr_time sched_arr_time
#>   <int> <int> <int>    <int>          <int>     <dbl>    <int>          <int>
#> 1  2013     1     9      641            900      1301     1242           1530
#> 2  2013     6    15     1432           1935      1137     1607           2120
#> 3  2013     1    10     1121           1635      1126     1239           1810
#> 4  2013     9    20     1139           1845      1014     1457           2210
#> 5  2013     7    22      845           1600      1005     1044           1815
#> 6  2013     4    10     1100           1900       960     1342           2211
#> # ℹ 336,770 more rows
#> # ℹ 11 more variables: arr_delay <dbl>, carrier <chr>, flight <int>, …

Σημειώστε ότι ο αριθμός των γραμμών δεν έχει αλλάξει – τακτοποιούμε μόνο τα δεδομένα, δεν τα φιλτράρουμε.

3.2.4 distinct()

Η distinct() βρίσκει όλες τις μοναδικές γραμμές σε ένα σύνολο δεδομένων, επομένως από τεχνική άποψη, λειτουργεί κυρίως στις γραμμές. Τις περισσότερες φορές, ωστόσο, θα θέλετε τον διακριτό συνδυασμό ορισμένων μεταβλητών, οπότε μπορείτε επίσης να παρέχετε προαιρετικά ονόματα στηλών:

# Αφαιρέστε τις διπλότυπες γραμμές, εάν υπάρχουν
flights |> 
  distinct()
#> # A tibble: 336,776 × 19
#>    year month   day dep_time sched_dep_time dep_delay arr_time sched_arr_time
#>   <int> <int> <int>    <int>          <int>     <dbl>    <int>          <int>
#> 1  2013     1     1      517            515         2      830            819
#> 2  2013     1     1      533            529         4      850            830
#> 3  2013     1     1      542            540         2      923            850
#> 4  2013     1     1      544            545        -1     1004           1022
#> 5  2013     1     1      554            600        -6      812            837
#> 6  2013     1     1      554            558        -4      740            728
#> # ℹ 336,770 more rows
#> # ℹ 11 more variables: arr_delay <dbl>, carrier <chr>, flight <int>, …

# Βρείτε όλα τα μοναδικά ζεύγη προέλευσης και προορισμού
flights |> 
  distinct(origin, dest)
#> # A tibble: 224 × 2
#>   origin dest 
#>   <chr>  <chr>
#> 1 EWR    IAH  
#> 2 LGA    IAH  
#> 3 JFK    MIA  
#> 4 JFK    BQN  
#> 5 LGA    ATL  
#> 6 EWR    ORD  
#> # ℹ 218 more rows

Εναλλακτικά, εάν θέλετε να διατηρήσετε άλλες στήλες κατά το φιλτράρισμα για μοναδικές γραμμές, μπορείτε να χρησιμοποιήσετε την επιλογή .keep_all = TRUE.

flights |> 
  distinct(origin, dest, .keep_all = TRUE)
#> # A tibble: 224 × 19
#>    year month   day dep_time sched_dep_time dep_delay arr_time sched_arr_time
#>   <int> <int> <int>    <int>          <int>     <dbl>    <int>          <int>
#> 1  2013     1     1      517            515         2      830            819
#> 2  2013     1     1      533            529         4      850            830
#> 3  2013     1     1      542            540         2      923            850
#> 4  2013     1     1      544            545        -1     1004           1022
#> 5  2013     1     1      554            600        -6      812            837
#> 6  2013     1     1      554            558        -4      740            728
#> # ℹ 218 more rows
#> # ℹ 11 more variables: arr_delay <dbl>, carrier <chr>, flight <int>, …

Δεν είναι τυχαίο ότι όλες αυτές οι ξεχωριστές πτήσεις πραγματοποιούνται την 1η Ιανουαρίου: Η distinct() θα βρει την πρώτη εμφάνιση μιας μοναδικής γραμμής στο σύνολο δεδομένων και θα απορρίψει τις υπόλοιπες.

Εάν θέλετε να βρείτε τον αριθμό των εμφανίσεων, καλύτερα να αντικαταστήσετε την distinct() με την count(), ενώ χρησιμοποιώντας το όρισμα sort = TRUE μπορείτε να τις διατάξετε σε φθίνουσα σειρά σύμφωνα με τον αριθμό εμφανίσεων. Θα μάθετε περισσότερα για τα αθροίσματα στην Ενότητα 13.3.

flights |>
  count(origin, dest, sort = TRUE)
#> # A tibble: 224 × 3
#>   origin dest      n
#>   <chr>  <chr> <int>
#> 1 JFK    LAX   11262
#> 2 LGA    ATL   10263
#> 3 LGA    ORD    8857
#> 4 JFK    SFO    8204
#> 5 LGA    CLT    6168
#> 6 EWR    ORD    6100
#> # ℹ 218 more rows
…
3.3 Στήλες

Υπάρχουν τέσσερις σημαντικές συναρτήσεις που επηρεάζουν τις στήλες χωρίς να αλλάζουν τις γραμμές: η mutate() δημιουργεί νέες στήλες που προέρχονται από τις ήδη υπάρχουσες στήλες, η select() που αλλάζει τις στήλες που είναι παρούσες, η rename() που αλλάζει τα ονόματα των στηλών και η relocate() που αλλάζει τις θέσεις των στηλών.

3.3.1 mutate()

Η δουλειά της mutate() είναι να προσθέτει νέες στήλες που υπολογίζονται από τις υπάρχουσες. Στα κεφάλαια του μετασχηματισμού δεδομένων, θα μάθετε ένα μεγάλο σύνολο συναρτήσεων το οποίο μπορείτε να χρησιμοποιήσετε για να χειριστείτε διαφορετικούς τύπους μεταβλητών. Προς το παρόν, θα παραμείνουμε στη βασική άλγεβρα, η οποία μας επιτρέπει να υπολογίσουμε το κέρδος (gain), τον χρόνο που έχει περάσει στον αέρα μία καθυστερημένη πτήση, και την ταχύτητα (speed) σε μίλια ανά ώρα:

flights |> 
  mutate(
    gain = dep_delay - arr_delay,
    speed = distance / air_time * 60
  )
#> # A tibble: 336,776 × 21
#>    year month   day dep_time sched_dep_time dep_delay arr_time sched_arr_time
#>   <int> <int> <int>    <int>          <int>     <dbl>    <int>          <int>
#> 1  2013     1     1      517            515         2      830            819
#> 2  2013     1     1      533            529         4      850            830
#> 3  2013     1     1      542            540         2      923            850
#> 4  2013     1     1      544            545        -1     1004           1022
#> 5  2013     1     1      554            600        -6      812            837
#> 6  2013     1     1      554            558        -4      740            728
#> # ℹ 336,770 more rows
#> # ℹ 13 more variables: arr_delay <dbl>, carrier <chr>, flight <int>, …

Από προεπιλογή, η mutate() προσθέτει νέες στήλες στη δεξιά πλευρά του συνόλου δεδομένων σας, γεγονός που καθιστά δύσκολο να δείτε τι έχει συμβεί. Γι’ αυτό μπορούμε να χρησιμοποιήσουμε το όρισμα .before για να προσθέσουμε τις μεταβλητές στην αριστερή πλευρά2:

flights |> 
  mutate(
    gain = dep_delay - arr_delay,
    speed = distance / air_time * 60,
    .before = 1
  )
#> # A tibble: 336,776 × 21
#>    gain speed  year month   day dep_time sched_dep_time dep_delay arr_time
#>   <dbl> <dbl> <int> <int> <int>    <int>          <int>     <dbl>    <int>
#> 1    -9  370.  2013     1     1      517            515         2      830
#> 2   -16  374.  2013     1     1      533            529         4      850
#> 3   -31  408.  2013     1     1      542            540         2      923
#> 4    17  517.  2013     1     1      544            545        -1     1004
#> 5    19  394.  2013     1     1      554            600        -6      812
#> 6   -16  288.  2013     1     1      554            558        -4      740
#> # ℹ 336,770 more rows
#> # ℹ 12 more variables: sched_arr_time <int>, arr_delay <dbl>, …
…
starts_with("abc"): επιλέγει στήλες των οποίων τα ονόματα ξεκινούν με “abc”.

ends_with("xyz"): επιλέγει στήλες των οποίων τα ονόματα τελειώνουν σε “xyz”.

contains("ijk"): επιλέγει στήλες των οποίων τα ονόματα περιέχουν το “ijk”.

Num_range("x", 1:3): επιλέγει τις στήλες x1, x2 και x3.

Δείτε την εντολή ?select για περισσότερες λεπτομέρειες. Μόλις μάθετε για τις κανονικές εκφράσεις (το αντικείμενο στο Κεφάλαιο 15), θα μπορείτε επίσης να χρησιμοποιήσετε την matches() για να επιλέξετε μεταβλητές που ταιριάζουν σε ένα μοτίβο.

Μπορείτε να μετονομάσετε τις μεταβλητές καθώς τις επιλέγετε με την select() χρησιμοποιώντας το =. Το νέο όνομα εμφανίζεται στην αριστερή πλευρά του = και η παλιά μεταβλητή στη δεξιά πλευρά:

flights |> 
  select(tail_num = tailnum)
#> # A tibble: 336,776 × 1
#>   tail_num
#>   <chr>   
#> 1 N14228  
#> 2 N24211  
#> 3 N619AA  
#> 4 N804JB  
#> 5 N668DN  
#> 6 N39463  
#> # ℹ 336,770 more rows

3.3.3 rename()

Εάν θέλετε να διατηρήσετε όλες τις υπάρχουσες μεταβλητές και απλώς να μετονομάσετε μερικές, μπορείτε να χρησιμοποιήσετε την rename() αντί για την select():

flights |> 
  rename(tail_num = tailnum)
#> # A tibble: 336,776 × 19
#>    year month   day dep_time sched_dep_time dep_delay arr_time sched_arr_time
#>   <int> <int> <int>    <int>          <int>     <dbl>    <int>          <int>
#> 1  2013     1     1      517            515         2      830            819
#> 2  2013     1     1      533            529         4      850            830
#> 3  2013     1     1      542            540         2      923            850
#> 4  2013     1     1      544            545        -1     1004           1022
#> 5  2013     1     1      554            600        -6      812            837
#> 6  2013     1     1      554            558        -4      740            728
#> # ℹ 336,770 more rows
#> # ℹ 11 more variables: arr_delay <dbl>, carrier <chr>, flight <int>, …

Εάν έχετε ένα σωρό στήλες με ασυνεπή ονόματα, τις οποίες θα ήταν επώδυνο να διορθώσετε όλες με το χέρι, ανατρέξτε στην janitor::clean_names() η οποία παρέχει χρήσιμες δυνατότητες αυτοματοποιημένου καθαρισμού των δεδομένων.

3.3.4 relocate()

Χρησιμοποιήστε την relocate() για να αλλάξετε θέση στις μεταβλητές. Μπορεί να θέλετε να συλλέξετε σχετικές μεταβλητές μαζί ή να μετακινήσετε σημαντικές μεταβλητές στο μπροστινό μέρος. Ως προεπιλογή η relocate() μετακινεί τις μεταβλητές στην αρχή του πλαισίου δεδομένων:

flights |> 
  relocate(time_hour, air_time)
#> # A tibble: 336,776 × 19
#>   time_hour           air_time  year month   day dep_time sched_dep_time
#>   <dttm>                 <dbl> <int> <int> <int>    <int>          <int>
#> 1 2013-01-01 05:00:00      227  2013     1     1      517            515
#> 2 2013-01-01 05:00:00      227  2013     1     1      533            529
#> 3 2013-01-01 05:00:00      160  2013     1     1      542            540
#> 4 2013-01-01 05:00:00      183  2013     1     1      544            545
#> 5 2013-01-01 06:00:00      116  2013     1     1      554            600
#> 6 2013-01-01 05:00:00      150  2013     1     1      554            558
#> # ℹ 336,770 more rows
#> # ℹ 12 more variables: dep_delay <dbl>, arr_time <int>, …
…
