Η R για την Επιστήμη των Δεδομένων (2η έκδοση) - 1 Οπτικοποίηση δεδομένων
…
Μία μεταβλητή είναι μία ποσότητα, ποιότητα ή ιδιότητα την οποία μπορούμε να μετρήσουμε.

Μία τιμή είναι η κατάσταση της μεταβλητής όταν την μετράμε. Η τιμή μιας μεταβλητής μπορεί να αλλάζει από μέτρηση σε μέτρηση.

Μία παρατήρηση είναι ένα σύνολο μετρήσεων που έχουν προκύψει κάτω από παρόμοιες συνθήκες (συνήθως λαμβάνουμε όλες τις μετρήσεις που αντιστοιχούν σε μία παρατήρηση την ίδια στιγμή και στο ίδιο αντικείμενο). Μία παρατήρηση μπορεί να περιέχει αρκετές τιμές, κάθε μία από τις οποίες συνδέεται με μία διαφορετική μεταβλητή. Μερικές φορές θα αναφερόμαστε σε μία παρατήρηση ως ένα σημείο δεδομένων.

Ένας πίνακας δεδομένων είναι ένα σύνολο τιμών, κάθε μία από τις οποίες συνδέεται με μία μεταβλητή και μία παρατήρηση. Δεδομένα σε μορφή πίνακα είναι τακτοποιημένα (tidy) εάν κάθε τιμή είναι τοποθετημένη στο δικό της “κελί”, κάθε μεταβλητή στη δική της στήλη και κάθε παρατήρηση στη δική της γραμμή.

Σε αυτό το πλαίσιο, μία μεταβλητή αναφέρεται σε μία ιδιότητα που έχουν όλοι οι πιγκουίνοι, και μία παρατήρηση αναφέρεται σε όλες τις ιδιότητες που έχει ένας συγκεκριμένος πιγκουίνος.

Πληκτρολογήστε το όνομα του πλαισίου δεδομένων στην κονσόλα και η R θα τυπώσει μία προεπισκόπηση των περιεχομένων του. Παρατηρήστε ότι πάνω από αυτήν την προεπισκόπηση γράφει tibble. Στο tidyverse, χρησιμοποιούμε ειδικά πλαίσια δεδομένων, τα οποία καλούνται tibbles και για τα οποία θα μάθετε περισσότερα σύντομα.

penguins
#> # A tibble: 344 × 8
#>   species island    bill_length_mm bill_depth_mm flipper_length_mm
#>   <fct>   <fct>              <dbl>         <dbl>             <int>
#> 1 Adelie  Torgersen           39.1          18.7               181
#> 2 Adelie  Torgersen           39.5          17.4               186
#> 3 Adelie  Torgersen           40.3          18                 195
#> 4 Adelie  Torgersen           NA            NA                  NA
#> 5 Adelie  Torgersen           36.7          19.3               193
#> 6 Adelie  Torgersen           39.3          20.6               190
#> # ℹ 338 more rows
#> # ℹ 3 more variables: body_mass_g <int>, sex <fct>, year <int>
…
