Η R για την Επιστήμη των Δεδομένων (2η έκδοση) - 21 Βάσεις Δεδομένων
…
Εάν χρησιμοποιείτε το duckdb σε πραγματικό project, συνιστούμε ανεπιφύλακτα να μάθετε για τις συναρτήσεις duckdb_read_csv() και duckdb_register_arrow(). Σας δίνουν ισχυρούς και αποδοτικούς τρόπους για να φορτώνετε γρήγορα δεδομένα απευθείας στο duckdb, χωρίς να χρειάζεται να τα φορτώσετε πρώτα στην R. Θα δείξουμε επίσης μία χρήσιμη τεχνική για τη φόρτωση πολλών αρχείων σε μία βάση δεδομένων στην Ενότητα 26.4.1.

21.3.3 Βασικά στοιχεία DBI

Μπορείτε να ελέγξετε ότι τα δεδομένα έχουν φορτωθεί σωστά χρησιμοποιώντας μερικές άλλες συναρτήσεις DBI: Η dbListTables() παραθέτει όλους τους πίνακες στη βάση δεδομένων3 και η dbReadTable() ανακτά τα περιεχόμενα ενός πίνακα.

dbListTables(con)
#> [1] "diamonds" "mpg"

con |> 
  dbReadTable("diamonds") |> 
  as_tibble()
#> # A tibble: 53,940 × 10
#>   carat cut       color clarity depth table price     x     y     z
#>   <dbl> <fct>     <fct> <fct>   <dbl> <dbl> <int> <dbl> <dbl> <dbl>
#> 1  0.23 Ideal     E     SI2      61.5    55   326  3.95  3.98  2.43
#> 2  0.21 Premium   E     SI1      59.8    61   326  3.89  3.84  2.31
#> 3  0.23 Good      E     VS1      56.9    65   327  4.05  4.07  2.31
#> 4  0.29 Premium   I     VS2      62.4    58   334  4.2   4.23  2.63
#> 5  0.31 Good      J     SI2      63.3    58   335  4.34  4.35  2.75
#> 6  0.24 Very Good J     VVS2     62.8    57   336  3.94  3.96  2.48
#> # ℹ 53,934 more rows

Η dbReadTable() επιστρέφει ένα data.frame επομένως χρησιμοποιούμε την as_tibble() για να το μετατρέψουμε σε tibble, έτσι ώστε να εκτυπώνεται όμορφα.

Εάν γνωρίζετε ήδη SQL, μπορείτε να χρησιμοποιήσετε την dbGetQuery() για να λάβετε τα αποτελέσματα της εκτέλεσης ενός ερωτήματος στη βάση δεδομένων:

sql <- "
  SELECT carat, cut, clarity, color, price 
  FROM diamonds 
  WHERE price > 15000
"
as_tibble(dbGetQuery(con, sql))
#> # A tibble: 1,655 × 5
#>   carat cut       clarity color price
#>   <dbl> <fct>     <fct>   <fct> <int>
#> 1  1.54 Premium   VS2     E     15002
#> 2  1.19 Ideal     VVS1    F     15005
#> 3  2.1  Premium   SI1     I     15007
#> 4  1.69 Ideal     SI1     D     15011
#> 5  1.5  Very Good VVS2    G     15013
#> 6  1.73 Very Good VS1     G     15014
#> # ℹ 1,649 more rows
…
Μπορείτε να δείτε τον κώδικα SQL που δημιουργείται από τη συνάρτηση της dplyr show_query(). Το να γνωρίζετε πως να εφαρμόζετε συναρτήσεις της dplyr, είναι ένας πολύ καλός τρόπος για να μάθετε και SQL! Γράψτε λίγο κώδικα dplyr, πείτε στο dbplyr να τον μεταφράσει σε SQL και, στη συνέχεια, προσπαθήστε να καταλάβετε πώς ταιριάζουν οι δύο γλώσσες.

big_diamonds_db |>
  show_query()
#> <SQL>
#> SELECT carat, cut, color, clarity, price
#> FROM diamonds
#> WHERE (price > 15000.0)

Για να επαναφέρετε όλα τα δεδομένα στην R, καλείτε την collect(). Στο παρασκήνιο, αυτό δημιουργεί την SQL, καλεί την dbGetQuery() για να πάρει τα δεδομένα και μετά μετατρέπει το αποτέλεσμα σε tibble:

big_diamonds <- big_diamonds_db |> 
  collect()
big_diamonds
#> # A tibble: 1,655 × 5
#>   carat cut       color clarity price
#>   <dbl> <fct>     <fct> <fct>   <int>
#> 1  1.54 Premium   E     VS2     15002
#> 2  1.19 Ideal     F     VVS1    15005
#> 3  2.1  Premium   I     SI1     15007
#> 4  1.69 Ideal     D     SI1     15011
#> 5  1.5  Very Good G     VVS2    15013
#> 6  1.73 Very Good G     VS1     15014
#> # ℹ 1,649 more rows
…
