Η R για την Επιστήμη των Δεδομένων (2η έκδοση) - 7 Εισαγωγή δεδομένων
…
7.4 Διαβάζοντας δεδομένα από πολλαπλά αρχεία

Μερικές φορές τα δεδομένα σας χωρίζονται σε πολλά αρχεία αντί να περιέχονται σε ένα μόνο αρχείο. Για παράδειγμα, μπορεί να έχετε δεδομένα πωλήσεων για πολλούς μήνες, με τα δεδομένα κάθε μήνα σε ξεχωριστό αρχείο: 01-sales.csv για τον Ιανουάριο, 02-sales.csv για το Φεβρουάριο και 03-sales.csv για το Μάρτιο. Με την read_csv() μπορείτε να διαβάσετε αυτά τα δεδομένα ταυτόχρονα και να τα στοιβάξετε το ένα πάνω στο άλλο, δημιουργώντας ένα συγκεντρωτικό πλαίσιο δεδομένων.

sales_files <- c("data/01-sales.csv", "data/02-sales.csv", "data/03-sales.csv")
read_csv(sales_files, id = "file")
#> # A tibble: 19 × 6
#>   file              month    year brand  item     n
#>   <chr>             <chr>   <dbl> <dbl> <dbl> <dbl>
#> 1 data/01-sales.csv January  2019     1  1234     3
#> 2 data/01-sales.csv January  2019     1  8721     9
#> 3 data/01-sales.csv January  2019     1  1822     2
#> 4 data/01-sales.csv January  2019     2  3333     1
#> 5 data/01-sales.csv January  2019     2  2156     9
#> 6 data/01-sales.csv January  2019     2  3987     6
#> # ℹ 13 more rows
…
