Η R για την Επιστήμη των Δεδομένων (2η έκδοση) - 5 Τακτοποίηση δεδομένων
…
Τα ίδια δεδομένα μπορούν να αναπαρασταθούν με πολλούς τρόπους. Το παρακάτω παράδειγμα δείχνει τα ίδια δεδομένα οργανωμένα με τρεις διαφορετικούς τρόπους. Κάθε σύνολο δεδομένων εμφανίζει τις ίδιες τιμές τεσσάρων μεταβλητών: country, year, population και αριθμός καταγεγραμμένων παρατηρήσεων φυματίωσης (TB, tuberculosis), αλλά κάθε σύνολο δεδομένων οργανώνει τις αντίστοιχες τιμές του με διαφορετικό τρόπο.

table1
#> # A tibble: 6 × 4
#>   country      year  cases population
#>   <chr>       <dbl>  <dbl>      <dbl>
#> 1 Afghanistan  1999    745   19987071
#> 2 Afghanistan  2000   2666   20595360
#> 3 Brazil       1999  37737  172006362
#> 4 Brazil       2000  80488  174504898
#> 5 China        1999 212258 1272915272
#> 6 China        2000 213766 1280428583

table2
#> # A tibble: 12 × 4
#>   country      year type           count
#>   <chr>       <dbl> <chr>          <dbl>
#> 1 Afghanistan  1999 cases            745
#> 2 Afghanistan  1999 population  19987071
#> 3 Afghanistan  2000 cases           2666
#> 4 Afghanistan  2000 population  20595360
#> 5 Brazil       1999 cases          37737
#> 6 Brazil       1999 population 172006362
#> # ℹ 6 more rows
…
Τα δεδομένα συχνά οργανώνονται για να διευκολύνουν κάποιον άλλο στόχο εκτός από την ανάλυση. Για παράδειγμα, είναι σύνηθες τα δεδομένα να είναι δομημένα ώστε να διευκολύνουν την εισαγωγή δεδομένων και όχι την ανάλυση.

Οι περισσότεροι άνθρωποι δεν είναι εξοικειωμένοι με τις αρχές των τακτοποιημένων δεδομένων και είναι δύσκολο να τις εξάγετε μόνοι σας, εκτός εάν αφιερώσετε πολύ χρόνο να εργάζεστε με δεδομένα.

Αυτό σημαίνει ότι οι περισσότερες πραγματικές αναλύσεις θα απαιτήσουν τουλάχιστον λίγη τακτοποίηση. Θα ξεκινήσετε ανακαλύπτοντας ποιες είναι οι υποκείμενες μεταβλητές και οι παρατηρήσεις. Μερικές φορές αυτό είναι εύκολο. άλλες φορές θα χρειαστεί να συμβουλευτείτε τα άτομα που δημιούργησαν αρχικά τα δεδομένα. Στη συνέχεια, θα περιστρέψετε (pivot) τα δεδομένα σας σε μία τακτοποιημένη μορφή, με μεταβλητές στις στήλες και παρατηρήσεις στις γραμμές.

Το tidyr παρέχει δύο συναρτήσεις για την περιστροφή δεδομένων: τις pivot_longer() και pivot_wider(). Αρχικά θα ξεκινήσουμε με την pivot_longer() επειδή είναι η πιο συνηθισμένη περίπτωση. Ας δούμε μερικά παραδείγματα.

5.3.1 Δεδομένα σε ονόματα στηλών

Το σύνολο δεδομένων billboard καταγράφει την κατάταξη των τραγουδιών στον πίνακα διαφημίσεων το έτος 2000:

billboard
#> # A tibble: 317 × 79
#>   artist       track               date.entered   wk1   wk2   wk3   wk4   wk5
#>   <chr>        <chr>               <date>       <dbl> <dbl> <dbl> <dbl> <dbl>
#> 1 2 Pac        Baby Don't Cry (Ke… 2000-02-26      87    82    72    77    87
#> 2 2Ge+her      The Hardest Part O… 2000-09-02      91    87    92    NA    NA
#> 3 3 Doors Down Kryptonite          2000-04-08      81    70    68    67    66
#> 4 3 Doors Down Loser               2000-10-21      76    76    72    69    67
#> 5 504 Boyz     Wobble Wobble       2000-04-15      57    34    25    17    17
#> 6 98^0         Give Me Just One N… 2000-08-19      51    39    34    26    26
#> # ℹ 311 more rows
#> # ℹ 71 more variables: wk6 <dbl>, wk7 <dbl>, wk8 <dbl>, wk9 <dbl>, …

Σε αυτό το σύνολο δεδομένων, κάθε παρατήρηση είναι ένα τραγούδι. Οι τρεις πρώτες στήλες (artist, track και date.entered) είναι μεταβλητές που περιγράφουν το τραγούδι. Στη συνέχεια, έχουμε 76 στήλες (wk1-wk76) που περιγράφουν την κατάταξη του τραγουδιού κάθε εβδομάδα1. Εδώ, τα ονόματα στηλών είναι μία μεταβλητή (η week) και οι τιμές των κελιών είναι μία άλλη (η rank).

Για να τακτοποιήσουμε αυτά τα δεδομένα, θα χρησιμοποιήσουμε την pivot_longer():

billboard |> 
  pivot_longer(
    cols = starts_with("wk"), 
    names_to = "week", 
    values_to = "rank"
  )
#> # A tibble: 24,092 × 5
#>    artist track                   date.entered week   rank
#>    <chr>  <chr>                   <date>       <chr> <dbl>
#>  1 2 Pac  Baby Don't Cry (Keep... 2000-02-26   wk1      87
#>  2 2 Pac  Baby Don't Cry (Keep... 2000-02-26   wk2      82
#>  3 2 Pac  Baby Don't Cry (Keep... 2000-02-26   wk3      72
#>  4 2 Pac  Baby Don't Cry (Keep... 2000-02-26   wk4      77
#>  5 2 Pac  Baby Don't Cry (Keep... 2000-02-26   wk5      87
#>  6 2 Pac  Baby Don't Cry (Keep... 2000-02-26   wk6      94
#>  7 2 Pac  Baby Don't Cry (Keep... 2000-02-26   wk7      99
#>  8 2 Pac  Baby Don't Cry (Keep... 2000-02-26   wk8      NA
#>  9 2 Pac  Baby Don't Cry (Keep... 2000-02-26   wk9      NA
#> 10 2 Pac  Baby Don't Cry (Keep... 2000-02-26   wk10     NA
#> # ℹ 24,082 more rows
…
Το values_to ορίζει τη μεταβλητή στην οποία είναι αποθηκευμένη οι τιμές των κελιών, σε αυτή την περίπτωση η rank.

Σημειώστε ότι στον κώδικα οι "week" και "rank" βρίσκονται μέσα σε εισαγωγικά επειδή πρόκειται για νέες μεταβλητές που δημιουργούμε - δεν υπάρχουν ακόμα στα δεδομένα μας όταν εκτελούμε την pivot_longer().

Τώρα ας στρέψουμε την προσοχή μας στο μακρύτερο πλαίσιο δεδομένων που προκύπτει. Τι συμβαίνει αν ένα τραγούδι είναι στα 100 καλύτερα για λιγότερο από 76 εβδομάδες; Πάρτε για παράδειγμα το “Baby Don’t Cry” του 2Pac. Το παραπάνω αποτέλεσμα υποδηλώνει ότι ήταν μόνο στις 100 πρώτες θέσεις για 7 εβδομάδες και όλες οι υπόλοιπες εβδομάδες συμπληρώνονται κενές τιμές. Αυτά τα NA δεν αντιπροσωπεύουν πραγματικά άγνωστες παρατηρήσεις. Αναγκάστηκαν να υπάρχουν λόγω της δομής του συνόλου δεδομένων2, επομένως μπορούμε να ζητήσουμε από την pivot_longer() να απαλλαγεί από αυτά ορίζοντας values_drop_na = TRUE:

billboard |> 
  pivot_longer(
    cols = starts_with("wk"), 
    names_to = "week", 
    values_to = "rank",
    values_drop_na = TRUE
  )
#> # A tibble: 5,307 × 5
#>   artist track                   date.entered week   rank
#>   <chr>  <chr>                   <date>       <chr> <dbl>
#> 1 2 Pac  Baby Don't Cry (Keep... 2000-02-26   wk1      87
#> 2 2 Pac  Baby Don't Cry (Keep... 2000-02-26   wk2      82
#> 3 2 Pac  Baby Don't Cry (Keep... 2000-02-26   wk3      72
#> 4 2 Pac  Baby Don't Cry (Keep... 2000-02-26   wk4      77
#> 5 2 Pac  Baby Don't Cry (Keep... 2000-02-26   wk5      87
#> 6 2 Pac  Baby Don't Cry (Keep... 2000-02-26   wk6      94
#> # ℹ 5,301 more rows
…
Αυτά τα δεδομένα είναι πλέον τακτοποιημένα, αλλά θα μπορούσαμε να κάνουμε τον μελλοντικό υπολογισμό λίγο πιο εύκολο μετατρέποντας τις τιμές της week από συμβολοσειρές χαρακτήρων σε αριθμούς χρησιμοποιώντας τις mutate() και readr::parse_number(). Η parse_number() είναι μία εύχρηστη συνάρτηση που εξάγει τον πρώτο αριθμό από μία συμβολοσειρά, αγνοώντας όλο το υπόλοιπο κείμενο.

billboard_longer <- billboard |> 
  pivot_longer(
    cols = starts_with("wk"), 
    names_to = "week", 
    values_to = "rank",
    values_drop_na = TRUE
  ) |> 
  mutate(
    week = parse_number(week)
  )
billboard_longer
#> # A tibble: 5,307 × 5
#>   artist track                   date.entered  week  rank
#>   <chr>  <chr>                   <date>       <dbl> <dbl>
#> 1 2 Pac  Baby Don't Cry (Keep... 2000-02-26       1    87
#> 2 2 Pac  Baby Don't Cry (Keep... 2000-02-26       2    82
#> 3 2 Pac  Baby Don't Cry (Keep... 2000-02-26       3    72
#> 4 2 Pac  Baby Don't Cry (Keep... 2000-02-26       4    77
#> 5 2 Pac  Baby Don't Cry (Keep... 2000-02-26       5    87
#> 6 2 Pac  Baby Don't Cry (Keep... 2000-02-26       6    94
#> # ℹ 5,301 more rows
…
Σχήμα 5.5: Ο αριθμός των τιμών διατηρείται (δεν επαναλαμβάνεται), απλώς τα δεδομένα ξετυλίγονται γραμμή-προς-γραμμή.

5.3.3 Πολλές μεταβλητές στα ονόματα στηλών

Μία πιο δύσκολη κατάσταση προκύπτει όταν έχετε πολλές πληροφορίες στριμωγμένες στα ονόματα των στηλών και θέλετε να τις αποθηκεύσετε σε ξεχωριστές νέες μεταβλητές. Για παράδειγμα, πάρτε το σύνολο δεδομένων who2, την πηγή του table1 και των σχετικών συνόλων δεδομένων που είδατε παραπάνω:

who2
#> # A tibble: 7,240 × 58
#>   country      year sp_m_014 sp_m_1524 sp_m_2534 sp_m_3544 sp_m_4554
#>   <chr>       <dbl>    <dbl>     <dbl>     <dbl>     <dbl>     <dbl>
#> 1 Afghanistan  1980       NA        NA        NA        NA        NA
#> 2 Afghanistan  1981       NA        NA        NA        NA        NA
#> 3 Afghanistan  1982       NA        NA        NA        NA        NA
#> 4 Afghanistan  1983       NA        NA        NA        NA        NA
#> 5 Afghanistan  1984       NA        NA        NA        NA        NA
#> 6 Afghanistan  1985       NA        NA        NA        NA        NA
#> # ℹ 7,234 more rows
#> # ℹ 51 more variables: sp_m_5564 <dbl>, sp_m_65 <dbl>, sp_f_014 <dbl>, …

Αυτό το σύνολο δεδομένων, που συλλέγεται από τον Παγκόσμιο Οργανισμό Υγείας, καταγράφει πληροφορίες σχετικά με τις διαγνώσεις φυματίωσης. Υπάρχουν δύο στήλες που είναι ήδη μεταβλητές και είναι εύκολο να ερμηνευτούν: οι country και year. Ακολουθούνται από 56 στήλες όπως οι sp_m_014, ep_m_4554, και rel_m_3544. Αν κοιτάξετε αυτές τις στήλες για αρκετή ώρα, θα παρατηρήσετε ότι υπάρχει ένα μοτίβο. Κάθε όνομα στήλης αποτελείται από τρία κομμάτια που χωρίζονται με _. Το πρώτο κομμάτι, sp/rel/ep, περιγράφει τη μέθοδο που χρησιμοποιείται για τη διάγνωση, το δεύτερο κομμάτι, m/f είναι το φύλο - gender (κωδικοποιημένο ως δυαδική μεταβλητή σε αυτό το σύνολο δεδομένων) , και το τρίτο κομμάτι, 014/1524/2534/3544/4554/5564/65 είναι το εύρος age (για παράδειγμα, το 014 αντιπροσωπεύει 0-14).

Έτσι σε αυτή την περίπτωση έχουμε έξι πληροφορίες που καταγράφονται στο who2: τη χώρα και το έτος (είναι ήδη στήλες στα δεδομένα μας) - τη μέθοδο διάγνωσης, την κατηγορία του φύλου και την κατηγορία ηλικιακού εύρους (που περιέχονται στα ονόματα των υπόλοιπων στηλών) - και τον αριθμό των ασθενών αυτής της κατηγορίας (τιμές κυττάρων). Για να οργανώσουμε αυτά τα έξι τμήματα πληροφοριών σε έξι ξεχωριστές στήλες, χρησιμοποιούμε την pivot_longer() με ένα διάνυσμα ονομάτων στηλών για το names_to και οδηγίες για τον διαχωρισμό των αρχικών ονομάτων μεταβλητών σε κομμάτια στο names_sep καθώς και ένα όνομα στήλης για το όρισμα values_to:

who2 |> 
  pivot_longer(
    cols = !(country:year),
    names_to = c("diagnosis", "gender", "age"), 
    names_sep = "_",
    values_to = "count"
  )
#> # A tibble: 405,440 × 6
#>   country      year diagnosis gender age   count
#>   <chr>       <dbl> <chr>     <chr>  <chr> <dbl>
#> 1 Afghanistan  1980 sp        m      014      NA
#> 2 Afghanistan  1980 sp        m      1524     NA
#> 3 Afghanistan  1980 sp        m      2534     NA
#> 4 Afghanistan  1980 sp        m      3544     NA
#> 5 Afghanistan  1980 sp        m      4554     NA
#> 6 Afghanistan  1980 sp        m      5564     NA
#> # ℹ 405,434 more rows
…
Αυτό το σύνολο δεδομένων περιέχει δεδομένα για πέντε οικογένειες, με ονόματα και ημερομηνίες γέννησης έως και δύο παιδιών. Η νέα πρόκληση σε αυτό το σύνολο δεδομένων είναι ότι τα ονόματα στηλών περιέχουν τα ονόματα δύο μεταβλητών (dob, name) και τις τιμές μιας άλλη μεταβλητής (child, με τιμές 1 ή 2). Για να λύσουμε αυτό το πρόβλημα πρέπει και πάλι να δώσουμε ένα διάνυσμα στο names_to αλλά αυτή τη φορά χρησιμοποιούμε το .value“. Αυτό δεν είναι το όνομα μιας μεταβλητής, αλλά μία μοναδική τιμή που λέει στην pivot_longer() να κάνει κάτι διαφορετικό. Αυτό παρακάμπτει το συνηθισμένο όρισμα values_to ώστε να χρησιμοποιηθεί το πρώτο στοιχείο του ονόματος της περιστρεφόμενης στήλης ως όνομα μεταβλητής στην έξοδο.

household |> 
  pivot_longer(
    cols = !family, 
    names_to = c(".value", "child"), 
    names_sep = "_", 
    values_drop_na = TRUE
  )
#> # A tibble: 9 × 4
#>   family child  dob        name 
#>    <int> <chr>  <date>     <chr>
#> 1      1 child1 1998-11-26 Susan
#> 2      1 child2 2000-01-29 Jose 
#> 3      2 child1 1996-06-22 Mark 
#> 4      3 child1 2002-07-11 Sam  
#> 5      3 child2 2004-04-05 Seth 
#> 6      4 child1 2004-10-10 Craig
#> # ℹ 3 more rows
…
Σχήμα 5.7: Θέτοντας το όρισμα names_to = c(".value", "num") κατά την περιστροφή, τα ονόματα των στηλών χωρίζονται σε δύο μέρη: το πρώτο καθορίζει το όνομα της στήλης εξόδου (x or y), και το δεύτερο την τιμή της στήλης num.

5.4 Διεύρυνση δεδομένων

Μέχρι στιγμής χρησιμοποιήσαμε την pivot_longer() για να λύσουμε μία κοινή κατηγορία προβλημάτων όπου οι τιμές έχουν καταλήξει σε ονόματα στηλών. Στη συνέχεια θα στραφούμε στην pivot_wider(), η οποία κάνει τα σύνολα δεδομένων ευρύτερα (wider) αυξάνοντας τις στήλες και μειώνοντας τις γραμμές και βοηθά όταν μία παρατήρηση κατανέμεται σε πολλές σειρές. Αυτό φαίνεται να εμφανίζεται λιγότερο συχνά στη φύση, αλλά συναντάται πολύ όταν ασχολούμαστε με κυβερνητικά δεδομένα.

Θα ξεκινήσουμε εξετάζοντας το cms_patient_experience, ένα σύνολο δεδομένων από τα Κέντρα Medicare και τις υπηρεσίες Medicaid που συλλέγει δεδομένα σχετικά με τις εμπειρίες ασθενών:

cms_patient_experience
#> # A tibble: 500 × 5
#>   org_pac_id org_nm                     measure_cd   measure_title   prf_rate
#>   <chr>      <chr>                      <chr>        <chr>              <dbl>
#> 1 0446157747 USC CARE MEDICAL GROUP INC CAHPS_GRP_1  CAHPS for MIPS…       63
#> 2 0446157747 USC CARE MEDICAL GROUP INC CAHPS_GRP_2  CAHPS for MIPS…       87
#> 3 0446157747 USC CARE MEDICAL GROUP INC CAHPS_GRP_3  CAHPS for MIPS…       86
#> 4 0446157747 USC CARE MEDICAL GROUP INC CAHPS_GRP_5  CAHPS for MIPS…       57
#> 5 0446157747 USC CARE MEDICAL GROUP INC CAHPS_GRP_8  CAHPS for MIPS…       85
#> 6 0446157747 USC CARE MEDICAL GROUP INC CAHPS_GRP_12 CAHPS for MIPS…       24
#> # ℹ 494 more rows
…
Καμία από αυτές τις στήλες δεν θα δημιουργήσει ιδιαίτερα χρήσιμα ονόματα μεταβλητών: η measure_cd δεν υποδηλώνει τη σημασία της μεταβλητής και η measure_title είναι μία μεγάλη πρόταση που περιέχει κενά. Προς το παρόν, θα χρησιμοποιήσουμε τη measure_cd ως πηγή για τα νέα ονόματα στηλών, αλλά σε μία πραγματική ανάλυση ίσως θελήσετε να δημιουργήσετε τα δικά σας ονόματα μεταβλητών που να είναι σύντομα και ουσιαστικά.

Η pivot_wider() έχει την αντίθετη διεπαφή από την pivot_longer(): αντί να επιλέξουμε νέα ονόματα στηλών, πρέπει να παρέχουμε τις υπάρχουσες στήλες που ορίζουν τις τιμές (values_from) και το όνομα της στήλης (names_from):

cms_patient_experience |> 
  pivot_wider(
    names_from = measure_cd,
    values_from = prf_rate
  )
#> # A tibble: 500 × 9
#>   org_pac_id org_nm                   measure_title   CAHPS_GRP_1 CAHPS_GRP_2
#>   <chr>      <chr>                    <chr>                 <dbl>       <dbl>
#> 1 0446157747 USC CARE MEDICAL GROUP … CAHPS for MIPS…          63          NA
#> 2 0446157747 USC CARE MEDICAL GROUP … CAHPS for MIPS…          NA          87
#> 3 0446157747 USC CARE MEDICAL GROUP … CAHPS for MIPS…          NA          NA
#> 4 0446157747 USC CARE MEDICAL GROUP … CAHPS for MIPS…          NA          NA
#> 5 0446157747 USC CARE MEDICAL GROUP … CAHPS for MIPS…          NA          NA
#> 6 0446157747 USC CARE MEDICAL GROUP … CAHPS for MIPS…          NA          NA
#> # ℹ 494 more rows
#> # ℹ 4 more variables: CAHPS_GRP_3 <dbl>, CAHPS_GRP_5 <dbl>, …

Η έξοδος δεν φαίνεται ιδιαίτερα σωστή. Εξακολουθούμε να έχουμε πολλές σειρές για κάθε οργανισμό. Αυτό συμβαίνει επειδή, πρέπει επίσης να πούμε στην pivot_wider() ποια στήλη ή στήλες έχουν τιμές που προσδιορίζουν μοναδικά κάθε γραμμή - σε αυτήν την περίπτωση αυτές είναι οι μεταβλητές που ξεκινούν με "org":

cms_patient_experience |> 
  pivot_wider(
    id_cols = starts_with("org"),
    names_from = measure_cd,
    values_from = prf_rate
  )
#> # A tibble: 95 × 8
#>   org_pac_id org_nm           CAHPS_GRP_1 CAHPS_GRP_2 CAHPS_GRP_3 CAHPS_GRP_5
#>   <chr>      <chr>                  <dbl>       <dbl>       <dbl>       <dbl>
#> 1 0446157747 USC CARE MEDICA…          63          87          86          57
#> 2 0446162697 ASSOCIATION OF …          59          85          83          63
#> 3 0547164295 BEAVER MEDICAL …          49          NA          75          44
#> 4 0749333730 CAPE PHYSICIANS…          67          84          85          65
#> 5 0840104360 ALLIANCE PHYSIC…          66          87          87          64
#> 6 0840109864 REX HOSPITAL INC          73          87          84          67
#> # ℹ 89 more rows
#> # ℹ 2 more variables: CAHPS_GRP_8 <dbl>, CAHPS_GRP_12 <dbl>
…
