Η R για την Επιστήμη των Δεδομένων (2η έκδοση) - 10 Διερευνητική ανάλυση δεδομένων
…
Το μέγεθος κάθε κύκλου στο διάγραμμα δείχνει πόσες παρατηρήσεις υπάρχουν για κάθε συνδυασμό τιμών. Η συνδιακύμανση θα εμφανιστεί ως ισχυρή συσχέτιση μεταξύ συγκεκριμένων τιμών x και συγκεκριμένων τιμών y.

Ένας άλλος τρόπος για τη διερεύνηση της σχέσης μεταξύ αυτών των μεταβλητών είναι ο υπολογισμός των μετρήσεων με το πακέτο dplyr:

diamonds |> 
count(color, cut)
#> # A tibble: 35 × 3
#>   color cut           n
#>   <ord> <ord>     <int>
#> 1 D     Fair        163
#> 2 D     Good        662
#> 3 D     Very Good  1513
#> 4 D     Premium    1603
#> 5 D     Ideal      2834
#> 6 E     Fair        224
#> # ℹ 29 more rows
…
