Η R για την Επιστήμη των Δεδομένων (2η έκδοση) - 16 Παράγοντες
…
df <- read_csv(csv, col_types = cols(month = col_factor(month_levels)))
df$month
#> [1] Jan Feb Mar
#> Levels: Jan Feb Mar Apr May Jun Jul Aug Sep Oct Nov Dec

16.3 General Social Survey

Για το υπόλοιπο αυτού του κεφαλαίου, θα χρησιμοποιήσουμε το forcats::gss_cat. Είναι ένα δείγμα δεδομένων από την General Social Survey, μία μακροχρόνια έρευνα στις ΗΠΑ που διενεργήθηκε από τον ανεξάρτητο ερευνητικό οργανισμό NORC στο Πανεπιστήμιο του Σικάγο. Η έρευνα έχει χιλιάδες ερωτήσεις, για αυτό τον λόγο ο Hadley επέλεξε κάποιες που μπορούν να δώσουν την εικόνα για μερικές συχνές προκλήσεις που θα αντιμετωπίσετε όταν εργάζεστε με παράγοντες.

gss_cat
#> # A tibble: 21,483 × 9
#>    year marital         age race  rincome        partyid           
#>   <int> <fct>         <int> <fct> <fct>          <fct>             
#> 1  2000 Never married    26 White $8000 to 9999  Ind,near rep      
#> 2  2000 Divorced         48 White $8000 to 9999  Not str republican
#> 3  2000 Widowed          67 White Not applicable Independent       
#> 4  2000 Never married    39 White Not applicable Ind,near rep      
#> 5  2000 Divorced         25 White Not applicable Not str democrat  
#> 6  2000 Married          25 White $20000 - 24999 Strong democrat   
#> # ℹ 21,477 more rows
#> # ℹ 3 more variables: relig <fct>, denom <fct>, tvhours <int>
…
16.4.1 Ασκήσεις

Υπάρχουν κάποιες υψηλές τιμές στην tvhours που είναι ύποπτες. Είναι η μέση τιμή μία καλή επιλογή για σύνοψη;

Για κάθε παράγοντα στο gss_cat προσδιορίστε εάν η σειρά των επιπέδων είναι αυθαίρετη ή με βάση κάποια λογική.

Γιατί η μετακίνηση του “Not applicable” στην αρχή των επιπέδων το μετακίνησε στο κάτω μέρος του διαγράμματος;

16.5 Τροποποίηση επιπέδων παραγόντων

Πιο ισχυρή διαδικασία από την αλλαγή της σειράς των επιπέδων είναι η αλλαγή των τιμών τους. Αυτό σας επιτρέπει να διευκρινίσετε τις ετικέτες προς δημοσίευση και να συμπτύξετε τα επίπεδα για πιο γενικές αναλύσεις. Το πιο γενικό και ισχυρό εργαλείο είναι η fct_recode(). Σας επιτρέπει να επανακωδικοποιήσετε ή να αλλάξετε την τιμή κάθε επιπέδου. Για παράδειγμα, πάρτε τη μεταβλητή partyid από το πλαίσιο δεδομένων gss_cat:

gss_cat |> count(partyid)
#> # A tibble: 10 × 2
#>   partyid                n
#>   <fct>              <int>
#> 1 No answer            154
#> 2 Don't know             1
#> 3 Other party          393
#> 4 Strong republican   2314
#> 5 Not str republican  3032
#> 6 Ind,near rep        1791
#> # ℹ 4 more rows
Τα επίπεδα είναι συνοπτικά και ασυνεπή. Ας τα αλλάξουμε ώστε να είναι μεγαλύτερα και ας χρησιμοποιήσουμε παράλληλη κατασκευή. Όπως και οι περισσότερες συναρτήσεις μετονομασίας και επανακωδικοποίησης στο tidyverse, οι νέες τιμές εμφανίζονται στα αριστερά και οι παλιές τιμές στα δεξιά:

gss_cat |>
  mutate(
    partyid = fct_recode(partyid,
      "Republican, strong"    = "Strong republican",
      "Republican, weak"      = "Not str republican",
      "Independent, near rep" = "Ind,near rep",
      "Independent, near dem" = "Ind,near dem",
      "Democrat, weak"        = "Not str democrat",
      "Democrat, strong"      = "Strong democrat"
    )
  ) |>
  count(partyid)
#> # A tibble: 10 × 2
#>   partyid                   n
#>   <fct>                 <int>
#> 1 No answer               154
#> 2 Don't know                1
#> 3 Other party             393
#> 4 Republican, strong     2314
#> 5 Republican, weak       3032
#> 6 Independent, near rep  1791
#> # ℹ 4 more rows
…
gss_cat |>
  mutate(relig = fct_lump_lowfreq(relig)) |>
  count(relig)
#> # A tibble: 2 × 2
#>   relig          n
#>   <fct>      <int>
#> 1 Protestant 10846
#> 2 Other      10637

Σε αυτήν την περίπτωση, δεν είναι πολύ χρήσιμο: είναι αλήθεια ότι η πλειοψηφία των Αμερικανών σε αυτήν την έρευνα είναι Προτεστάντες, αλλά μάλλον θα θέλαμε να δούμε περισσότερες λεπτομέρειες! Αντίθετα, μπορούμε να χρησιμοποιήσουμε την fct_lump_n() για να καθορίσουμε ότι θέλουμε ακριβώς 10 ομάδες:

gss_cat |>
  mutate(relig = fct_lump_n(relig, n = 10)) |>
  count(relig, sort = TRUE)
#> # A tibble: 10 × 2
#>   relig          n
#>   <fct>      <int>
#> 1 Protestant 10846
#> 2 Catholic    5124
#> 3 None        3523
#> 4 Christian    689
#> 5 Other        458
#> 6 Jewish       388
#> # ℹ 4 more rows
…
