Η R για την Επιστήμη των Δεδομένων (2η έκδοση) - 25 Συναρτήσεις
…
Για να συνοψίσετε πολλαπλές μεταβλητές, θα χρειαστεί να περιμένετε μέχρι την Ενότητα 26.2, όπου θα μάθετε πώς να χρησιμοποιείτε την across().

Μία άλλη δημοφιλής βοηθητική συνάρτηση τύπου summarize() είναι μία έκδοση της count() που υπολογίζει επίσης αναλογίες:

# https://twitter.com/Diabb6/status/1571635146658402309
count_prop <- function(df, var, sort = FALSE) {
  df |>
    count({{ var }}, sort = sort) |>
    mutate(prop = n / sum(n))
}

diamonds |> count_prop(clarity)
#> # A tibble: 8 × 3
#>   clarity     n   prop
#>   <ord>   <int>  <dbl>
#> 1 I1        741 0.0137
#> 2 SI2      9194 0.170 
#> 3 SI1     13065 0.242 
#> 4 VS2     12258 0.227 
#> 5 VS1      8171 0.151 
#> 6 VVS2     5066 0.0939
#> # ℹ 2 more rows

Αυτή η συνάρτηση έχει τρία ορίσματα: df, var και sort, και μόνο η var πρέπει να ενθυλακωθεί επειδή περνάει στη count() που χρησιμοποιεί απόκρυψη δεδομένων για όλες τις μεταβλητές. Σημειώστε ότι χρησιμοποιούμε μία προεπιλεγμένη τιμή για την sort, έτσι ώστε εάν ο χρήστης δεν δώσει τη δική του τιμή, θα χρησιμοποιήσει τη προεπιλεγμένη FALSE.

Ή ίσως θέλετε να βρείτε τις ταξινομημένες μοναδικές τιμές μιας μεταβλητής για ένα υποσύνολο δεδομένων. Αντί να δώσουμε μία μεταβλητή και μία τιμή για να κάνουμε το φιλτράρισμα, θα επιτρέψουμε στον χρήστη να δώσει μία συνθήκη:

unique_where <- function(df, condition, var) {
  df |> 
    filter({{ condition }}) |> 
    distinct({{ var }}) |> 
    arrange({{ var }})
}

# Βρείτε όλους τους προορισμούς τον Δεκέμβριο
flights |> unique_where(month == 12, dest)
#> # A tibble: 96 × 1
#>   dest 
#>   <chr>
#> 1 ABQ  
#> 2 ALB  
#> 3 ATL  
#> 4 AUS  
#> 5 AVL  
#> 6 BDL  
#> # ℹ 90 more rows
…
Αυτό δεν λειτουργεί επειδή η group_by() χρησιμοποιεί απόκρυψη δεδομένων και όχι tidy-selection. Μπορούμε να επιλύσουμε αυτό το πρόβλημα χρησιμοποιώντας τη συνάρτηση pick(), η οποία σας επιτρέπει να χρησιμοποιείτε tidy-selection μέσα στις συναρτήσεις απόκρυψης δεδομένων:

count_missing <- function(df, group_vars, x_var) {
  df |> 
    group_by(pick({{ group_vars }})) |> 
    summarize(
      n_miss = sum(is.na({{ x_var }})),
      .groups = "drop"
  )
}

flights |> 
  count_missing(c(year, month, day), dep_time)
#> # A tibble: 365 × 4
#>    year month   day n_miss
#>   <int> <int> <int>  <int>
#> 1  2013     1     1      4
#> 2  2013     1     2      8
#> 3  2013     1     3     10
#> 4  2013     1     4      6
#> 5  2013     1     5      3
#> 6  2013     1     6      1
#> # ℹ 359 more rows
…
# https://twitter.com/pollicipes/status/1571606508944719876
count_wide <- function(data, rows, cols) {
  data |> 
    count(pick(c({{ rows }}, {{ cols }}))) |> 
    pivot_wider(
      names_from = {{ cols }}, 
      values_from = n,
      names_sort = TRUE,
      values_fill = 0
    )
}

diamonds |> count_wide(c(clarity, color), cut)
#> # A tibble: 56 × 7
#>   clarity color  Fair  Good `Very Good` Premium Ideal
#>   <ord>   <ord> <int> <int>       <int>   <int> <int>
#> 1 I1      D         4     8           5      12    13
#> 2 I1      E         9    23          22      30    18
#> 3 I1      F        35    19          13      34    42
#> 4 I1      G        53    19          16      46    16
#> 5 I1      H        52    14          12      46    38
#> 6 I1      I        34     9           8      24    17
#> # ℹ 50 more rows
…
