Η R για την Επιστήμη των Δεδομένων (2η έκδοση) - 26 Επανάληψη
…
Δεν υπάρχει τρόπος, προς το παρόν, αυτό να γίνει με την across()4, είναι όμως σχετικά απλό με την pivot_longer():

df_long <- df_paired |> 
  pivot_longer(
    everything(), 
    names_to = c("group", ".value"), 
    names_sep = "_"
  )
df_long
#> # A tibble: 40 × 3
#>   group    val   wts
#>   <chr>  <dbl> <dbl>
#> 1 a      0.715 0.518
#> 2 b     -0.709 0.691
#> 3 c      0.718 0.216
#> 4 d     -0.217 0.733
#> 5 a     -1.09  0.979
#> 6 b     -0.209 0.675
#> # ℹ 34 more rows
…
Η τοποθέτηση κάθε αρχείου Excel στη δική του μεταβλητή θα κάνει τη διαχείρισή τους δύσκολη σε λίγα βήματα πιο κάτω. Αντίθετα, θα είναι πιο εύκολο εάν τα τοποθετήσουμε σε ένα μόνο αντικείμενο. Μία λίστα είναι το τέλειο εργαλείο για αυτή τη δουλειά:

files <- list(
  readxl::read_excel("data/gapminder/1952.xlsx"),
  readxl::read_excel("data/gapminder/1957.xlsx"),
  readxl::read_excel("data/gapminder/1962.xlsx"),
  ...,
  readxl::read_excel("data/gapminder/2007.xlsx")
)

Τώρα που έχετε αυτά τα πλαίσια δεδομένων σε μία λίστα, πώς μπορείτε να βγάλετε ένα από αυτή; Μπορείτε να χρησιμοποιήσετε την files[[i]] για να εξάγετε το iοστο στοιχείο:

files[[3]]
#> # A tibble: 142 × 5
#>   country     continent lifeExp      pop gdpPercap
#>   <chr>       <chr>       <dbl>    <dbl>     <dbl>
#> 1 Afghanistan Asia         32.0 10267083      853.
#> 2 Albania     Europe       64.8  1728137     2313.
#> 3 Algeria     Africa       48.3 11000948     2551.
#> 4 Angola      Africa       34    4826015     4269.
#> 5 Argentina   Americas     65.1 21283783     7133.
#> 6 Australia   Oceania      70.9 10794968    12217.
#> # ℹ 136 more rows
…
list(
  f(x[[1]]),
  f(x[[2]]),
  ...,
  f(x[[n]])
)

Μπορούμε λοιπόν να χρησιμοποιήσουμε τη map() για να πάρουμε μία λίστα με 12 πλαίσια δεδομένων:

files <- map(paths, readxl::read_excel)
length(files)
#> [1] 12

files[[1]]
#> # A tibble: 142 × 5
#>   country     continent lifeExp      pop gdpPercap
#>   <chr>       <chr>       <dbl>    <dbl>     <dbl>
#> 1 Afghanistan Asia         28.8  8425333      779.
#> 2 Albania     Europe       55.2  1282697     1601.
#> 3 Algeria     Africa       43.1  9279525     2449.
#> 4 Angola      Africa       30.0  4232095     3521.
#> 5 Argentina   Americas     62.5 17876956     5911.
#> 6 Australia   Oceania      69.1  8691212    10040.
#> # ℹ 136 more rows

(Αυτή είναι μία άλλη δομή δεδομένων που δεν εμφανίζεται ιδιαίτερα συμπαγής χρησιμοποιώντας την str(), επομένως ίσως θέλετε να τη φορτώσετε στο RStudio και να την επιθεωρήσετε με την View()).

Τώρα μπορούμε να χρησιμοποιήσουμε την purrr::list_rbind() για να συνδυάσουμε αυτήν τη λίστα πλαισίων δεδομένων σε ένα ενιαίο πλαίσιο δεδομένων:

list_rbind(files)
#> # A tibble: 1,704 × 5
#>   country     continent lifeExp      pop gdpPercap
#>   <chr>       <chr>       <dbl>    <dbl>     <dbl>
#> 1 Afghanistan Asia         28.8  8425333      779.
#> 2 Albania     Europe       55.2  1282697     1601.
#> 3 Algeria     Africa       43.1  9279525     2449.
#> 4 Angola      Africa       30.0  4232095     3521.
#> 5 Argentina   Americas     62.5 17876956     5911.
#> 6 Australia   Oceania      69.1  8691212    10040.
#> # ℹ 1,698 more rows

Ή θα μπορούσαμε να κάνουμε και τα δύο βήματα ταυτόχρονα σε μία διαδικασία με τον τελεστή pipe:

paths |> 
  map(readxl::read_excel) |> 
  list_rbind()

Τι γίνεται αν θέλουμε να προσθέσουμε ορίσματα στη read_excel(); Χρησιμοποιούμε την ίδια τεχνική που χρησιμοποιήσαμε με την across(). Για παράδειγμα, είναι συχνά χρήσιμο να βλέπουμε τις πρώτες γραμμές των δεδομένων με το όρισμα n_max = 1:

paths |> 
  map(\(path) readxl::read_excel(path, n_max = 1)) |> 
  list_rbind()
#> # A tibble: 12 × 5
#>   country     continent lifeExp      pop gdpPercap
#>   <chr>       <chr>       <dbl>    <dbl>     <dbl>
#> 1 Afghanistan Asia         28.8  8425333      779.
#> 2 Afghanistan Asia         30.3  9240934      821.
#> 3 Afghanistan Asia         32.0 10267083      853.
#> 4 Afghanistan Asia         34.0 11537966      836.
#> 5 Afghanistan Asia         36.1 13079460      740.
#> 6 Afghanistan Asia         38.4 14880372      786.
#> # ℹ 6 more rows
…
Ο παραπάνω κώδικας με τη κλήση της map(), είναι συντομογραφία για:

files <- list(
  "1952.xlsx" = readxl::read_excel("data/gapminder/1952.xlsx"),
  "1957.xlsx" = readxl::read_excel("data/gapminder/1957.xlsx"),
  "1962.xlsx" = readxl::read_excel("data/gapminder/1962.xlsx"),
  ...,
  "2007.xlsx" = readxl::read_excel("data/gapminder/2007.xlsx")
)

Μπορείτε επίσης να χρησιμοποιήσετε το [[ για να εξάγετε στοιχεία ανά όνομα:

files[["1962.xlsx"]]
#> # A tibble: 142 × 5
#>   country     continent lifeExp      pop gdpPercap
#>   <chr>       <chr>       <dbl>    <dbl>     <dbl>
#> 1 Afghanistan Asia         32.0 10267083      853.
#> 2 Albania     Europe       64.8  1728137     2313.
#> 3 Algeria     Africa       48.3 11000948     2551.
#> 4 Angola      Africa       34    4826015     4269.
#> 5 Argentina   Americas     65.1 21283783     7133.
#> 6 Australia   Oceania      70.9 10794968    12217.
#> # ℹ 136 more rows

Στη συνέχεια, χρησιμοποιούμε το όρισμα names_to στη list_rbind() για να της πούμε να αποθηκεύσει τα ονόματα σε μία νέα στήλη που ονομάζεται year και στη συνέχεια χρησιμοποιούμε τη readr::parse_number() για να εξαγάγουμε τον αριθμό από το κείμενο.

paths |> 
  set_names(basename) |> 
  map(readxl::read_excel) |> 
  list_rbind(names_to = "year") |> 
  mutate(year = parse_number(year))
#> # A tibble: 1,704 × 6
#>    year country     continent lifeExp      pop gdpPercap
#>   <dbl> <chr>       <chr>       <dbl>    <dbl>     <dbl>
#> 1  1952 Afghanistan Asia         28.8  8425333      779.
#> 2  1952 Albania     Europe       55.2  1282697     1601.
#> 3  1952 Algeria     Africa       43.1  9279525     2449.
#> 4  1952 Angola      Africa       30.0  4232095     3521.
#> 5  1952 Argentina   Americas     62.5 17876956     5911.
#> 6  1952 Australia   Oceania      69.1  8691212    10040.
#> # ℹ 1,698 more rows

Σε πιο περίπλοκες περιπτώσεις, μπορεί να υπάρχουν άλλες ήδη αποθηκευμένες μεταβλητές στο όνομα του καταλόγου ή ίσως το όνομα του αρχείου να περιέχει πολλά bit δεδομένων. Σε αυτήν την περίπτωση, χρησιμοποιήστε τη set_names() (χωρίς ορίσματα) για να καταγράψετε το πλήρες μονοπάτι και, στη συνέχεια, χρησιμοποιήστε τη tidyr::separate_wider_delim() και την αντίστοιχη οικογένεια συναρτήσεων για να τα μετατρέψετε σε χρήσιμες στήλες.

paths |> 
  set_names() |> 
  map(readxl::read_excel) |> 
  list_rbind(names_to = "year") |> 
  separate_wider_delim(year, delim = "/", names = c(NA, "dir", "file")) |> 
  separate_wider_delim(file, delim = ".", names = c("file", "ext"))
#> # A tibble: 1,704 × 8
#>   dir       file  ext   country     continent lifeExp      pop gdpPercap
#>   <chr>     <chr> <chr> <chr>       <chr>       <dbl>    <dbl>     <dbl>
#> 1 gapminder 1952  xlsx  Afghanistan Asia         28.8  8425333      779.
#> 2 gapminder 1952  xlsx  Albania     Europe       55.2  1282697     1601.
#> 3 gapminder 1952  xlsx  Algeria     Africa       43.1  9279525     2449.
#> 4 gapminder 1952  xlsx  Angola      Africa       30.0  4232095     3521.
#> 5 gapminder 1952  xlsx  Argentina   Americas     62.5 17876956     5911.
#> 6 gapminder 1952  xlsx  Australia   Oceania      69.1  8691212    10040.
#> # ℹ 1,698 more rows
…
Στη συνέχεια, μπορείτε να εφαρμόσετε αυτήν τη συνάρτηση σε όλα τα αρχεία και ίσως με τη χρήση κάποιον συγκεντρωτικών πινάκων οι διαφορές να γίνουν πιο εύκολα αντιληπτές. Για παράδειγμα, αυτό διευκολύνει την επαλήθευση ότι τα υπολογιστικά φύλλα του gapminder με τα οποία έχουμε εργαστεί είναι όλα αρκετά ομοιογενή:

files |> 
  map(df_types) |> 
  list_rbind(names_to = "file_name") |> 
  select(-n_miss) |> 
  pivot_wider(names_from = col_name, values_from = col_type)
#> # A tibble: 12 × 6
#>   file_name country   continent lifeExp pop    gdpPercap
#>   <chr>     <chr>     <chr>     <chr>   <chr>  <chr>    
#> 1 1952.xlsx character character double  double double   
#> 2 1957.xlsx character character double  double double   
#> 3 1962.xlsx character character double  double double   
#> 4 1967.xlsx character character double  double double   
#> 5 1972.xlsx character character double  double double   
#> 6 1977.xlsx character character double  double double   
#> # ℹ 6 more rows
…
Μερικές φορές, όταν εργάζεστε με πολλά αρχεία ταυτόχρονα, δεν είναι δυνατό να χωρέσετε όλα τα δεδομένα σας στη μνήμη ταυτόχρονα, και δεν μπορείτε να τρέξετε την map(files, read_csv). Μία προσέγγιση για να αντιμετωπίσετε αυτό το πρόβλημα είναι να φορτώσετε τα δεδομένα σας σε μία βάση δεδομένων, ώστε να μπορείτε να αποκτήσετε πρόσβαση μόνο στα τμήματα που χρειάζεστε με την dbplyr.

Αν είστε τυχεροί, το πακέτο βάσης δεδομένων που χρησιμοποιείτε θα παρέχει μία εύκολη στη χρήση συνάρτηση που λαμβάνει ένα διάνυσμα μονοπατιών και φορτώνει όλα τα δεδομένα στη βάση δεδομένων. Αυτό συμβαίνει με τη συνάρτηση duckdb_read_csv() της duckdb:

con <- DBI::dbConnect(duckdb::duckdb())
duckdb::duckdb_read_csv(con, "gapminder", paths)

Αυτό θα λειτουργούσε καλά εδώ, αλλά δεν έχουμε αρχεία csv, αντίθετα έχουμε αρχεία Excel. Έτσι, θα πρέπει να το κάνουμε “με το χέρι”. Το να μάθετε να το κάνετε με το χέρι θα σας βοηθήσει επίσης σε περιπτώσεις που έχετε μία σειρά από αρχεία csv και ταυτόχρονα η βάση δεδομένων με την οποία εργάζεστε δεν έχει κάποια λειτουργία για να τα φορτώσει όλα.

Πρέπει να ξεκινήσουμε δημιουργώντας έναν πίνακα που θα γεμίσουμε με δεδομένα. Ο πιο εύκολος τρόπος για να το κάνουμε αυτό είναι δημιουργώντας το αντικείμενο template, ένα εικονικό πλαίσιο δεδομένων που περιέχει όλες τις στήλες που θέλουμε, αλλά μόνο ένα δείγμα των δεδομένων. Για τα δεδομένα από την gapminder, μπορούμε να δημιουργήσουμε το template διαβάζοντας ένα μόνο αρχείο και προσθέτοντας το έτος (year) σε αυτό:

template <- readxl::read_excel(paths[[1]])
template$year <- 1952
template
#> # A tibble: 142 × 6
#>   country     continent lifeExp      pop gdpPercap  year
#>   <chr>       <chr>       <dbl>    <dbl>     <dbl> <dbl>
#> 1 Afghanistan Asia         28.8  8425333      779.  1952
#> 2 Albania     Europe       55.2  1282697     1601.  1952
#> 3 Algeria     Africa       43.1  9279525     2449.  1952
#> 4 Angola      Africa       30.0  4232095     3521.  1952
#> 5 Argentina   Americas     62.5 17876956     5911.  1952
#> 6 Australia   Oceania      69.1  8691212    10040.  1952
#> # ℹ 136 more rows
…
26.4.2 Εγγραφή αρχείων csv

Η ίδια βασική αρχή ισχύει αν θέλουμε να γράψουμε πολλαπλά αρχεία csv, ένα για κάθε ομάδα. Ας φανταστούμε ότι θέλουμε να πάρουμε το σύνολο δεδομένων ggplot2::diamonds και να αποθηκεύσουμε ένα αρχείο csv για κάθε τιμής της στήλης clarity. Πρώτα πρέπει να δημιουργήσουμε τα ξεχωριστά σύνολα δεδομένων. Υπάρχουν πολλοί τρόποι που θα μπορούσατε να το κάνετε αυτό, αλλά υπάρχει ένας τρόπος που μας αρέσει ιδιαίτερα: η group_nest().

by_clarity <- diamonds |> 
  group_nest(clarity)

by_clarity
#> # A tibble: 8 × 2
#>   clarity               data
#>   <ord>   <list<tibble[,9]>>
#> 1 I1               [741 × 9]
#> 2 SI2            [9,194 × 9]
#> 3 SI1           [13,065 × 9]
#> 4 VS2           [12,258 × 9]
#> 5 VS1            [8,171 × 9]
#> 6 VVS2           [5,066 × 9]
#> # ℹ 2 more rows

Αυτό μας δίνει ένα νέο tibble με οκτώ γραμμές και δύο στήλες. H clarity είναι η μεταβλητή ομαδοποίησης μας και η data είναι μία λίστα/στήλη που περιέχει ένα tibble για κάθε μοναδική τιμή της clarity:

by_clarity$data[[1]]
#> # A tibble: 741 × 9
#>   carat cut       color depth table price     x     y     z
#>   <dbl> <ord>     <ord> <dbl> <dbl> <int> <dbl> <dbl> <dbl>
#> 1  0.32 Premium   E      60.9    58   345  4.38  4.42  2.68
#> 2  1.17 Very Good J      60.2    61  2774  6.83  6.9   4.13
#> 3  1.01 Premium   F      61.8    60  2781  6.39  6.36  3.94
#> 4  1.01 Fair      E      64.5    58  2788  6.29  6.21  4.03
#> 5  0.96 Ideal     F      60.7    55  2801  6.37  6.41  3.88
#> 6  1.04 Premium   G      62.2    58  2801  6.46  6.41  4   
#> # ℹ 735 more rows

Όσο είμαστε σε αυτό το στάδιο, ας δημιουργήσουμε μία στήλη που δίνει το όνομα του αρχείου εξόδου, χρησιμοποιώντας την mutate() και την str_glue():

by_clarity <- by_clarity |> 
  mutate(path = str_glue("diamonds-{clarity}.csv"))

by_clarity
#> # A tibble: 8 × 3
#>   clarity               data path             
#>   <ord>   <list<tibble[,9]>> <glue>           
#> 1 I1               [741 × 9] diamonds-I1.csv  
#> 2 SI2            [9,194 × 9] diamonds-SI2.csv 
#> 3 SI1           [13,065 × 9] diamonds-SI1.csv 
#> 4 VS2           [12,258 × 9] diamonds-VS2.csv 
#> 5 VS1            [8,171 × 9] diamonds-VS1.csv 
#> 6 VVS2           [5,066 × 9] diamonds-VVS2.csv
#> # ℹ 2 more rows
…
