Η R για την Επιστήμη των Δεδομένων (2η έκδοση) - 19 Ενώσεις
…
library(tidyverse)
library(nycflights13)

19.2 Κλειδιά

Για να κατανοήσετε τις ενώσεις, πρέπει πρώτα να κατανοήσετε πώς δύο πίνακες μπορούν να συνδεθούν μέσω ενός ζεύγους κλειδιών, που υπάρχουν σε κάθε πίνακα. Σε αυτήν την ενότητα, θα μάθετε για τους δύο τύπους κλειδιών και θα δείτε παραδείγματα και των δύο στα σύνολα δεδομένων του πακέτου nycflights13. Θα μάθετε επίσης πώς να ελέγχετε ότι τα κλειδιά σας είναι έγκυρα και τι να κάνετε εάν ο πίνακας σας δεν διαθέτει κλειδί.

19.2.1 Πρωτεύοντα και δευτερεύοντα (ξένα) κλειδιά

Κάθε ένωση περιλαμβάνει ένα ζεύγος κλειδιών: ένα πρωτεύον (ή κύριο) κλειδί και ένα ξένο (ή δευτερεύον) κλειδί. Ένα πρωτεύον κλειδί είναι μία μεταβλητή ή ένα σύνολο μεταβλητών που προσδιορίζει μοναδικά κάθε παρατήρηση. Όταν χρειάζονται περισσότερες από μία μεταβλητές, το κλειδί ονομάζεται σύνθετο κλειδί. Για παράδειγμα, στο nycflights13:

Το πλαίσιο δεδομένων airlines καταγράφει για κάθε αεροπορική εταιρεία δύο στοιχεία: τον κωδικό της εταιρείας και το πλήρες όνομά της. Μπορείτε να προσδιορίσετε μία αεροπορική εταιρεία με τον κωδικό δύο γραμμάτων που της αντιστοιχεί, καθιστώντας τη μεταβλητή carrier το πρωτεύον κλειδί.

airlines
#> # A tibble: 16 × 2
#>   carrier name                    
#>   <chr>   <chr>                   
#> 1 9E      Endeavor Air Inc.       
#> 2 AA      American Airlines Inc.  
#> 3 AS      Alaska Airlines Inc.    
#> 4 B6      JetBlue Airways         
#> 5 DL      Delta Air Lines Inc.    
#> 6 EV      ExpressJet Airlines Inc.
#> # ℹ 10 more rows

Το airports καταγράφει δεδομένα για κάθε αεροδρόμιο. Μπορείτε να προσδιορίσετε κάθε αεροδρόμιο με τον κωδικό τριών γραμμάτων που του αντιστοιχεί, καθιστώντας τη μεταβλητή faa το πρωτεύον κλειδί.

airports
#> # A tibble: 1,458 × 8
#>   faa   name                            lat   lon   alt    tz dst  
#>   <chr> <chr>                         <dbl> <dbl> <dbl> <dbl> <chr>
#> 1 04G   Lansdowne Airport              41.1 -80.6  1044    -5 A    
#> 2 06A   Moton Field Municipal Airport  32.5 -85.7   264    -6 A    
#> 3 06C   Schaumburg Regional            42.0 -88.1   801    -6 A    
#> 4 06N   Randall Airport                41.4 -74.4   523    -5 A    
#> 5 09J   Jekyll Island Airport          31.1 -81.4    11    -5 A    
#> 6 0A9   Elizabethton Municipal Airpo…  36.4 -82.2  1593    -5 A    
#> # ℹ 1,452 more rows
#> # ℹ 1 more variable: tzone <chr>

Το planes καταγράφει δεδομένα για κάθε αεροπλάνο. Μπορείτε να προσδιορίσετε ένα αεροπλάνο με τον αναγνωριστικό κωδικό του, καθιστώντας τη μεταβλητή tailnum το πρωτεύον κλειδί.

planes
#> # A tibble: 3,322 × 9
#>   tailnum  year type              manufacturer    model     engines
#>   <chr>   <int> <chr>             <chr>           <chr>       <int>
#> 1 N10156   2004 Fixed wing multi… EMBRAER         EMB-145XR       2
#> 2 N102UW   1998 Fixed wing multi… AIRBUS INDUSTR… A320-214        2
#> 3 N103US   1999 Fixed wing multi… AIRBUS INDUSTR… A320-214        2
#> 4 N104UW   1999 Fixed wing multi… AIRBUS INDUSTR… A320-214        2
#> 5 N10575   2002 Fixed wing multi… EMBRAER         EMB-145LR       2
#> 6 N105UW   1999 Fixed wing multi… AIRBUS INDUSTR… A320-214        2
#> # ℹ 3,316 more rows
#> # ℹ 3 more variables: seats <int>, speed <int>, engine <chr>

Το weather καταγράφει δεδομένα για τον καιρό στο αεροδρόμιο αναχώρησης. Μπορείτε να προσδιορίσετε κάθε παρατήρηση από το συνδυασμό τοποθεσίας και ώρας, καθιστώντας τις μεταβλητές origin και time_hour το σύνθετο πρωτεύον κλειδί.

weather
#> # A tibble: 26,115 × 15
#>   origin  year month   day  hour  temp  dewp humid wind_dir
#>   <chr>  <int> <int> <int> <int> <dbl> <dbl> <dbl>    <dbl>
#> 1 EWR     2013     1     1     1  39.0  26.1  59.4      270
#> 2 EWR     2013     1     1     2  39.0  27.0  61.6      250
#> 3 EWR     2013     1     1     3  39.0  28.0  64.4      240
#> 4 EWR     2013     1     1     4  39.9  28.0  62.2      250
#> 5 EWR     2013     1     1     5  39.0  28.0  64.4      260
#> 6 EWR     2013     1     1     6  37.9  28.0  67.2      240
#> # ℹ 26,109 more rows
#> # ℹ 6 more variables: wind_speed <dbl>, wind_gust <dbl>, …
…
Η αναγνώριση ενός αεροδρομίου με βάση το υψόμετρο και το γεωγραφικό του πλάτος είναι σαφώς κακή ιδέα και γενικά δεν είναι δυνατό να γνωρίζουμε μόνο από τα δεδομένα εάν ένας συνδυασμός μεταβλητών αποτελεί ένα καλό πρωτεύον κλειδί ή όχι. Ωστόσο, για τις πτήσεις, ο συνδυασμός των μεταβλητών time_hour, carrier, και flight φαίνεται λογικός γιατί θα προκαλούσε σύγχυση για μία αεροπορική εταιρεία και τους πελάτες της εάν υπήρχαν πολλές πτήσεις με τον ίδιο αριθμό πτήσης στον αέρα ταυτόχρονα .

Έχοντας ξεκαθαρίσει αυτό το σημείο, ίσως είναι καλύτερα να εισάγουμε ένα απλό αριθμητικό υποκατάστατο κλειδί χρησιμοποιώντας τον αριθμό κάθε γραμμής:

flights2 <- flights |> 
  mutate(id = row_number(), .before = 1)
flights2
#> # A tibble: 336,776 × 20
#>      id  year month   day dep_time sched_dep_time dep_delay arr_time
#>   <int> <int> <int> <int>    <int>          <int>     <dbl>    <int>
#> 1     1  2013     1     1      517            515         2      830
#> 2     2  2013     1     1      533            529         4      850
#> 3     3  2013     1     1      542            540         2      923
#> 4     4  2013     1     1      544            545        -1     1004
#> 5     5  2013     1     1      554            600        -6      812
#> 6     6  2013     1     1      554            558        -4      740
#> # ℹ 336,770 more rows
#> # ℹ 12 more variables: sched_arr_time <int>, arr_delay <dbl>, …
…
19.3 Βασικές ενώσεις

Τώρα που καταλαβαίνετε πως συνδέονται τα πλαίσια δεδομένων με τη βοήθεια κλειδιών, μπορούμε να αρχίσουμε να χρησιμοποιούμε ενώσεις για να κατανοήσουμε καλύτερα το σύνολο δεδομένων flights. Η dplyr προσφέρει έξι συναρτήσεις ένωσης: left_join(), inner_join(), right_join(), full_join(), semi_join(), και anti_join(). Όλες έχουν την ίδια διεπαφή: παίρνουν ένα ζευγάρι πλαισίων δεδομένων (x και y) και επιστρέφουν ένα πλαίσιο δεδομένων. Η σειρά των γραμμών και στηλών στην έξοδο καθορίζεται κυρίως από το x.

Σε αυτήν την ενότητα, θα μάθετε πώς να χρησιμοποιείτε μία ένωση αλλαγής, την left_join(), και δύο filtering ενώσεις, τις semi_join() και anti_join(). Στην επόμενη ενότητα, θα μάθετε πώς ακριβώς λειτουργούν αυτές οι συναρτήσεις, καθώς και για τις υπόλοιπες: inner_join(), right_join() και full_join().

19.3.1 Ενώσεις αλλαγής

Μία ένωση αλλαγής σας επιτρέπει να συνδυάσετε μεταβλητές από δύο πλαίσια δεδομένων: πρώτα αντιστοιχίζει παρατηρήσεις με βάση τα κλειδιά τους και μετά αντιγράφει παρατηρήσεις μεταξύ των μεταβλητών από το ένα πλαίσιο δεδομένων στο άλλο. Όπως και η mutate(), οι συναρτήσεις ένωσης προσθέτουν μεταβλητές στα δεξιά, οπότε αν το σύνολο δεδομένων σας έχει πολλές μεταβλητές, δεν θα δείτε τις νέες. Για αυτά τα παραδείγματα, θα διευκολύνουμε την παρατήρηση του τι συμβαίνει δημιουργώντας ένα πιο στενό σύνολο δεδομένων με έξι μόνο μεταβλητές1:

flights2 <- flights |> 
  select(year, time_hour, origin, dest, tailnum, carrier)
flights2
#> # A tibble: 336,776 × 6
#>    year time_hour           origin dest  tailnum carrier
#>   <int> <dttm>              <chr>  <chr> <chr>   <chr>  
#> 1  2013 2013-01-01 05:00:00 EWR    IAH   N14228  UA     
#> 2  2013 2013-01-01 05:00:00 LGA    IAH   N24211  UA     
#> 3  2013 2013-01-01 05:00:00 JFK    MIA   N619AA  AA     
#> 4  2013 2013-01-01 05:00:00 JFK    BQN   N804JB  B6     
#> 5  2013 2013-01-01 06:00:00 LGA    ATL   N668DN  DL     
#> 6  2013 2013-01-01 05:00:00 EWR    ORD   N39463  UA     
#> # ℹ 336,770 more rows

Υπάρχουν τέσσερις τύποι ενώσεων αλλαγής, ωστόσο ένας είναι που θα χρησιμοποιείτε σχεδόν συνέχεια: left_join(). Αυτό είναι ιδιαίτερο γιατί η έξοδος θα έχει πάντα τις ίδιες γραμμές με το x, το πλαίσιο δεδομένων προς το οποίο συνδέετε2. Η κύρια χρήση του left_join() είναι η προσθήκη επιπλέον μεταδεδομένων. Για παράδειγμα, μπορούμε να χρησιμοποιήσουμε το left_join() για να προσθέσουμε το πλήρες όνομα της αεροπορικής εταιρείας στα δεδομένα του flights2:

flights2 |>
  left_join(airlines)
#> Joining with `by = join_by(carrier)`
#> # A tibble: 336,776 × 7
#>    year time_hour           origin dest  tailnum carrier name                
#>   <int> <dttm>              <chr>  <chr> <chr>   <chr>   <chr>               
#> 1  2013 2013-01-01 05:00:00 EWR    IAH   N14228  UA      United Air Lines In…
#> 2  2013 2013-01-01 05:00:00 LGA    IAH   N24211  UA      United Air Lines In…
#> 3  2013 2013-01-01 05:00:00 JFK    MIA   N619AA  AA      American Airlines I…
#> 4  2013 2013-01-01 05:00:00 JFK    BQN   N804JB  B6      JetBlue Airways     
#> 5  2013 2013-01-01 06:00:00 LGA    ATL   N668DN  DL      Delta Air Lines Inc.
#> 6  2013 2013-01-01 05:00:00 EWR    ORD   N39463  UA      United Air Lines In…
#> # ℹ 336,770 more rows

Ή θα μπορούσαμε να μάθουμε τη θερμοκρασία και την ταχύτητα του ανέμου όταν κάθε αεροπλάνο αναχωρούσε:

flights2 |> 
  left_join(weather |> select(origin, time_hour, temp, wind_speed))
#> Joining with `by = join_by(time_hour, origin)`
#> # A tibble: 336,776 × 8
#>    year time_hour           origin dest  tailnum carrier  temp wind_speed
#>   <int> <dttm>              <chr>  <chr> <chr>   <chr>   <dbl>      <dbl>
#> 1  2013 2013-01-01 05:00:00 EWR    IAH   N14228  UA       39.0       12.7
#> 2  2013 2013-01-01 05:00:00 LGA    IAH   N24211  UA       39.9       15.0
#> 3  2013 2013-01-01 05:00:00 JFK    MIA   N619AA  AA       39.0       15.0
#> 4  2013 2013-01-01 05:00:00 JFK    BQN   N804JB  B6       39.0       15.0
#> 5  2013 2013-01-01 06:00:00 LGA    ATL   N668DN  DL       39.9       16.1
#> 6  2013 2013-01-01 05:00:00 EWR    ORD   N39463  UA       39.0       12.7
#> # ℹ 336,770 more rows

Ή τι μέγεθος αεροπλάνου πετούσε:

flights2 |> 
  left_join(planes |> select(tailnum, type, engines, seats))
#> Joining with `by = join_by(tailnum)`
#> # A tibble: 336,776 × 9
#>    year time_hour           origin dest  tailnum carrier type                
#>   <int> <dttm>              <chr>  <chr> <chr>   <chr>   <chr>               
#> 1  2013 2013-01-01 05:00:00 EWR    IAH   N14228  UA      Fixed wing multi en…
#> 2  2013 2013-01-01 05:00:00 LGA    IAH   N24211  UA      Fixed wing multi en…
#> 3  2013 2013-01-01 05:00:00 JFK    MIA   N619AA  AA      Fixed wing multi en…
#> 4  2013 2013-01-01 05:00:00 JFK    BQN   N804JB  B6      Fixed wing multi en…
#> 5  2013 2013-01-01 06:00:00 LGA    ATL   N668DN  DL      Fixed wing multi en…
#> 6  2013 2013-01-01 05:00:00 EWR    ORD   N39463  UA      Fixed wing multi en…
#> # ℹ 336,770 more rows
#> # ℹ 2 more variables: engines <int>, seats <int>

Όταν η left_join() δεν βρει ταίριασμα για μία γραμμή στο x, συμπληρώνει τις νέες μεταβλητές με κενές τιμές. Για παράδειγμα, δεν υπάρχουν πληροφορίες σχετικά με το αεροπλάνο με αναγνωριστικό κωδικό N3ALAA, οπότε οι τιμές στις στήλες type, engines, και seats θα λείπουν:

flights2 |> 
  filter(tailnum == "N3ALAA") |> 
  left_join(planes |> select(tailnum, type, engines, seats))
#> Joining with `by = join_by(tailnum)`
#> # A tibble: 63 × 9
#>    year time_hour           origin dest  tailnum carrier type  engines seats
#>   <int> <dttm>              <chr>  <chr> <chr>   <chr>   <chr>   <int> <int>
#> 1  2013 2013-01-01 06:00:00 LGA    ORD   N3ALAA  AA      <NA>       NA    NA
#> 2  2013 2013-01-02 18:00:00 LGA    ORD   N3ALAA  AA      <NA>       NA    NA
#> 3  2013 2013-01-03 06:00:00 LGA    ORD   N3ALAA  AA      <NA>       NA    NA
#> 4  2013 2013-01-07 19:00:00 LGA    ORD   N3ALAA  AA      <NA>       NA    NA
#> 5  2013 2013-01-08 17:00:00 JFK    ORD   N3ALAA  AA      <NA>       NA    NA
#> 6  2013 2013-01-16 06:00:00 LGA    ORD   N3ALAA  AA      <NA>       NA    NA
#> # ℹ 57 more rows

Θα επανέλθουμε σε αυτό το πρόβλημα μερικές φορές στο υπόλοιπο αυτού του κεφαλαίου.

19.3.2 Καθορισμός κλειδιών ένωσης

Από προεπιλογή, η left_join() θα χρησιμοποιεί όλες τις μεταβλητές που εμφανίζονται και στα δύο πλαίσια δεδομένων ως κλειδί ένωση, τη λεγόμενη φυσική (natural) ένωση. Αυτός είναι ένα χρήσιμος κανόνας, αλλά δεν λειτουργεί πάντα. Για παράδειγμα, τι θα συμβεί αν προσπαθήσουμε να ενώσουμε το flights2 με το πλήρες σύνολο δεδομένων planes;

flights2 |> 
  left_join(planes)
#> Joining with `by = join_by(year, tailnum)`
#> # A tibble: 336,776 × 13
#>    year time_hour           origin dest  tailnum carrier type  manufacturer
#>   <int> <dttm>              <chr>  <chr> <chr>   <chr>   <chr> <chr>       
#> 1  2013 2013-01-01 05:00:00 EWR    IAH   N14228  UA      <NA>  <NA>        
#> 2  2013 2013-01-01 05:00:00 LGA    IAH   N24211  UA      <NA>  <NA>        
#> 3  2013 2013-01-01 05:00:00 JFK    MIA   N619AA  AA      <NA>  <NA>        
#> 4  2013 2013-01-01 05:00:00 JFK    BQN   N804JB  B6      <NA>  <NA>        
#> 5  2013 2013-01-01 06:00:00 LGA    ATL   N668DN  DL      <NA>  <NA>        
#> 6  2013 2013-01-01 05:00:00 EWR    ORD   N39463  UA      <NA>  <NA>        
#> # ℹ 336,770 more rows
#> # ℹ 5 more variables: model <chr>, engines <int>, seats <int>, …

Θα λάβουμε πολλές περιπτώσεις χωρίς αντιστοίχιση επειδή η ένωση μας προσπαθεί να χρησιμοποιήσει τις μεταβλητές tailnum και year ως σύνθετο κλειδί. Και τα δύο σύνολα, flights και planes, περιέχουν μία στήλη year, ωστόσο αυτή η στήλη έχει σημαίνει διαφορετικά πράγματα σε κάθε περίπτωση: η flights$year είναι το έτος που πραγματοποιήθηκε η πτήση και η planes$year είναι το έτος κατασκευής του αεροπλάνου. Θέλουμε να πραγματοποιήσουμε ένωση μόνο με βάση την tailnum, επομένως πρέπει να παρέχουμε μία ρητή προδιαγραφή με το join_by():

flights2 |> 
  left_join(planes, join_by(tailnum))
#> # A tibble: 336,776 × 14
#>   year.x time_hour           origin dest  tailnum carrier year.y
#>    <int> <dttm>              <chr>  <chr> <chr>   <chr>    <int>
#> 1   2013 2013-01-01 05:00:00 EWR    IAH   N14228  UA        1999
#> 2   2013 2013-01-01 05:00:00 LGA    IAH   N24211  UA        1998
#> 3   2013 2013-01-01 05:00:00 JFK    MIA   N619AA  AA        1990
#> 4   2013 2013-01-01 05:00:00 JFK    BQN   N804JB  B6        2012
#> 5   2013 2013-01-01 06:00:00 LGA    ATL   N668DN  DL        1991
#> 6   2013 2013-01-01 05:00:00 EWR    ORD   N39463  UA        2012
#> # ℹ 336,770 more rows
#> # ℹ 7 more variables: type <chr>, manufacturer <chr>, model <chr>, …

Σημειώστε ότι η προέλευση των μεταβλητών year αποσαφηνίζεται στην έξοδο με ένα επίθημα (year.x και year.y), το οποίο μας λέει εάν η μεταβλητή προήλθε από το όρισμα x ή y. Μπορείτε να παρακάμψετε τα προεπιλεγμένα επιθήματα με το όρισμα suffix.

Το join_by(tailnum) είναι η σύντομη εκδοχή του join_by(tailnum == tailnum). Είναι σημαντικό να γνωρίζετε αυτήν την πληρέστερη εκδοχή για δύο λόγους. Πρώτον, γιατί περιγράφει τη σχέση μεταξύ των δύο πινάκων: τα κλειδιά πρέπει να είναι ίσα (equal). Αυτός είναι ο λόγος για τον οποίο αυτός ο τύπος ένωσης ονομάζεται συχνά equi ένωση. Θα μάθετε για τις non-equi ενώσεις στην Ενότητα 19.5.

Δεύτερον, γιατί δείχνει τον τρόπο με τον οποίο καθορίζετε διαφορετικά κλειδιά ένωσης σε κάθε πίνακα. Για παράδειγμα, υπάρχουν δύο τρόποι για να ενώσετε τους πίνακες flight2 και airports: είτε με βάση το dest (τον προορισμό) είτε το origin (την προέλευση):

flights2 |> 
  left_join(airports, join_by(dest == faa))
#> # A tibble: 336,776 × 13
#>    year time_hour           origin dest  tailnum carrier name                
#>   <int> <dttm>              <chr>  <chr> <chr>   <chr>   <chr>               
#> 1  2013 2013-01-01 05:00:00 EWR    IAH   N14228  UA      George Bush Interco…
#> 2  2013 2013-01-01 05:00:00 LGA    IAH   N24211  UA      George Bush Interco…
#> 3  2013 2013-01-01 05:00:00 JFK    MIA   N619AA  AA      Miami Intl          
#> 4  2013 2013-01-01 05:00:00 JFK    BQN   N804JB  B6      <NA>                
#> 5  2013 2013-01-01 06:00:00 LGA    ATL   N668DN  DL      Hartsfield Jackson …
#> 6  2013 2013-01-01 05:00:00 EWR    ORD   N39463  UA      Chicago Ohare Intl  
#> # ℹ 336,770 more rows
#> # ℹ 6 more variables: lat <dbl>, lon <dbl>, alt <dbl>, tz <dbl>, …

flights2 |> 
  left_join(airports, join_by(origin == faa))
#> # A tibble: 336,776 × 13
#>    year time_hour           origin dest  tailnum carrier name               
#>   <int> <dttm>              <chr>  <chr> <chr>   <chr>   <chr>              
#> 1  2013 2013-01-01 05:00:00 EWR    IAH   N14228  UA      Newark Liberty Intl
#> 2  2013 2013-01-01 05:00:00 LGA    IAH   N24211  UA      La Guardia         
#> 3  2013 2013-01-01 05:00:00 JFK    MIA   N619AA  AA      John F Kennedy Intl
#> 4  2013 2013-01-01 05:00:00 JFK    BQN   N804JB  B6      John F Kennedy Intl
#> 5  2013 2013-01-01 06:00:00 LGA    ATL   N668DN  DL      La Guardia         
#> 6  2013 2013-01-01 05:00:00 EWR    ORD   N39463  UA      Newark Liberty Intl
#> # ℹ 336,770 more rows
#> # ℹ 6 more variables: lat <dbl>, lon <dbl>, alt <dbl>, tz <dbl>, …
…
airports |> 
  semi_join(flights2, join_by(faa == origin))
#> # A tibble: 3 × 8
#>   faa   name                  lat   lon   alt    tz dst   tzone           
#>   <chr> <chr>               <dbl> <dbl> <dbl> <dbl> <chr> <chr>           
#> 1 EWR   Newark Liberty Intl  40.7 -74.2    18    -5 A     America/New_York
#> 2 JFK   John F Kennedy Intl  40.6 -73.8    13    -5 A     America/New_York
#> 3 LGA   La Guardia           40.8 -73.9    22    -5 A     America/New_York

Ή μόνο τους προορισμούς:

airports |> 
  semi_join(flights2, join_by(faa == dest))
#> # A tibble: 101 × 8
#>   faa   name                     lat    lon   alt    tz dst   tzone          
#>   <chr> <chr>                  <dbl>  <dbl> <dbl> <dbl> <chr> <chr>          
#> 1 ABQ   Albuquerque Internati…  35.0 -107.   5355    -7 A     America/Denver 
#> 2 ACK   Nantucket Mem           41.3  -70.1    48    -5 A     America/New_Yo…
#> 3 ALB   Albany Intl             42.7  -73.8   285    -5 A     America/New_Yo…
#> 4 ANC   Ted Stevens Anchorage…  61.2 -150.    152    -9 A     America/Anchor…
#> 5 ATL   Hartsfield Jackson At…  33.6  -84.4  1026    -5 A     America/New_Yo…
#> 6 AUS   Austin Bergstrom Intl   30.2  -97.7   542    -6 A     America/Chicago
#> # ℹ 95 more rows
…
Ή μπορούμε να βρούμε ποιες τιμές της μεταβλητής tailnum λείπουν από το planes:

flights2 |>
  anti_join(planes, join_by(tailnum)) |> 
  distinct(tailnum)
#> # A tibble: 722 × 1
#>   tailnum
#>   <chr>  
#> 1 N3ALAA 
#> 2 N3DUAA 
#> 3 N542MQ 
#> 4 N730MQ 
#> 5 N9EAMQ 
#> 6 N532UA 
#> # ℹ 716 more rows
…
Σχήμα 19.14: Μία διασταυρούμενη ένωησ αντιστοιχίζει κάθε γραμμή του x με κάθε γραμμή του y.

Οι διασταυρούμενες ενώσεις είναι χρήσιμες κατά τη δημιουργία συνδυασμών. Για παράδειγμα, ο παρακάτω κώδικας δημιουργεί κάθε πιθανό ζεύγος ονομάτων. Εφόσον ενώνουμε το df με τον εαυτό του, αυτό μερικές φορές ονομάζεται αυτο-ένωση (self-join). Οι διασταυρούμενες ενώσεις χρησιμοποιούν διαφορετική συνάρτηση ένωσης επειδή δεν υπάρχει διάκριση μεταξύ εσωτερικές/αριστερές/δεξιές/πλήρεις ενώσεις όταν η αντιστοίχιση αφορά κάθε γραμμή.

df <- tibble(name = c("John", "Simon", "Tracy", "Max"))
df |> cross_join(df)
#> # A tibble: 16 × 2
#>   name.x name.y
#>   <chr>  <chr> 
#> 1 John   John  
#> 2 John   Simon 
#> 3 John   Tracy 
#> 4 John   Max   
#> 5 Simon  John  
#> 6 Simon  Simon 
#> # ℹ 10 more rows
…
parties <- tibble(
  q = 1:4,
  party = ymd(c("2022-01-10", "2022-04-04", "2022-07-11", "2022-10-03"))
)

Τώρα φανταστείτε ότι έχετε έναν πίνακα με τα γενέθλια των εργαζομένων:

set.seed(123)
employees <- tibble(
  name = sample(babynames::babynames$name, 100),
  birthday = ymd("2022-01-01") + (sample(365, 100, replace = TRUE) - 1)
)
employees
#> # A tibble: 100 × 2
#>   name     birthday  
#>   <chr>    <date>    
#> 1 Kemba    2022-01-22
#> 2 Orean    2022-06-26
#> 3 Kirstyn  2022-02-11
#> 4 Amparo   2022-11-11
#> 5 Belen    2022-03-25
#> 6 Rayshaun 2022-01-11
#> # ℹ 94 more rows
…
