Η R για την Επιστήμη των Δεδομένων (2η έκδοση) - 9 Επίπεδα
…
9.1.1 Προαπαιτούμενα

Αυτό το κεφάλαιο εστιάζει στο πακέτο ggplot2. Για να αποκτήσετε πρόσβαση στα δεδομένα, τις σελίδες βοήθειας και τις συναρτήσεις που χρησιμοποιούνται σε αυτό το κεφάλαιο, φορτώστε το tidyverse εκτελώντας αυτόν τον κώδικα:

library(tidyverse)

9.2 Αισθητικά στοιχεία

“Η μεγαλύτερη αξία μιας εικόνας είναι όταν μας αναγκάζει να παρατηρήσουμε αυτό που δεν περιμέναμε ποτέ να δούμε.” — John Tukey

Θυμηθείτε ότι το πλαίσιο δεδομένων mpg που συμπεριλαμβάνεται στο πακέτο ggplot2 περιέχει 234 παρατηρήσεις (γραμμές) για 38 μοντέλα αυτοκινήτων.

mpg
#> # A tibble: 234 × 11
#>   manufacturer model displ  year   cyl trans      drv     cty   hwy fl   
#>   <chr>        <chr> <dbl> <int> <int> <chr>      <chr> <int> <int> <chr>
#> 1 audi         a4      1.8  1999     4 auto(l5)   f        18    29 p    
#> 2 audi         a4      1.8  1999     4 manual(m5) f        21    29 p    
#> 3 audi         a4      2    2008     4 manual(m6) f        20    31 p    
#> 4 audi         a4      2    2008     4 auto(av)   f        21    30 p    
#> 5 audi         a4      2.8  1999     6 auto(l5)   f        16    26 p    
#> 6 audi         a4      2.8  1999     6 manual(m5) f        18    26 p    
#> # ℹ 228 more rows
#> # ℹ 1 more variable: class <chr>
…
