Η R για την Επιστήμη των Δεδομένων (2η έκδοση) - 12 Λογικά διανύσματα
…
library(tidyverse)
library(nycflights13)

Ωστόσο, καθώς αρχίζουμε να καλύπτουμε περισσότερα εργαλεία, δεν θα υπάρχει πάντα κάποιο αντίστοιχο τέλειο πραγματικό παράδειγμα. Θα αρχίσουμε λοιπόν φτιάχνοντας μερικά συνθετικά δεδομένα με την c():

x <- c(1, 2, 3, 5, 7, 11, 13)
x * 2
#> [1]  2  4  6 10 14 22 26

Αυτό διευκολύνει την εξήγηση μεμονωμένων συναρτήσεων με το μειονέκτημα ότι είναι πιο δύσκολο να δούμε πώς αυτή μπορεί να εφαρμοστεί για τα προβλήματα των δεδομένων σας. Να θυμάστε ότι κάθε χειρισμό που εφαρμόζουμε σε ένα διάνυσμα, μπορείτε να τον εφαρμόσετε και σε μία μεταβλητή μέσα σε ένα πλαίσιο δεδομένων με την mutate() και άλλες παρόμοιες συναρτήσεις.

df <- tibble(x)
df |> 
  mutate(y = x * 2)
#> # A tibble: 7 × 2
#>       x     y
#>   <dbl> <dbl>
#> 1     1     2
#> 2     2     4
#> 3     3     6
#> 4     5    10
#> 5     7    14
#> 6    11    22
#> # ℹ 1 more row

12.2 Συγκρίσεις

Ένας αρκετά συνηθισμένος τρόπος για να δημιουργήσετε ένα λογικό διάνυσμα είναι μέσω μιας αριθμητικής σύγκρισης με τους τελεστές <, <=, >, >=, != και ==. Μέχρι στιγμής, έχουμε δημιουργήσει ως επί το πλείστον λογικές μεταβλητές μέσα στην filter() — υπολογίζονται, χρησιμοποιούνται και στη συνέχεια αγνοούνται. Για παράδειγμα, η ακόλουθη filter βρίσκει όλες τις ημερήσιες αναχωρήσεις που φτάνουν περίπου στην ώρα τους:

flights |> 
  filter(dep_time > 600 & dep_time < 2000 & abs(arr_delay) < 20)
#> # A tibble: 172,286 × 19
#>    year month   day dep_time sched_dep_time dep_delay arr_time sched_arr_time
#>   <int> <int> <int>    <int>          <int>     <dbl>    <int>          <int>
#> 1  2013     1     1      601            600         1      844            850
#> 2  2013     1     1      602            610        -8      812            820
#> 3  2013     1     1      602            605        -3      821            805
#> 4  2013     1     1      606            610        -4      858            910
#> 5  2013     1     1      606            610        -4      837            845
#> 6  2013     1     1      607            607         0      858            915
#> # ℹ 172,280 more rows
#> # ℹ 11 more variables: arr_delay <dbl>, carrier <chr>, flight <int>, …

Είναι χρήσιμο να γνωρίζετε ότι αυτό είναι μία συντόμευση και ότι μπορείτε να δημιουργήσετε ξεχωριστά τις υποκείμενες λογικές μεταβλητές με την mutate():

flights |> 
  mutate(
    daytime = dep_time > 600 & dep_time < 2000,
    approx_ontime = abs(arr_delay) < 20,
    .keep = "used"
  )
#> # A tibble: 336,776 × 4
#>   dep_time arr_delay daytime approx_ontime
#>      <int>     <dbl> <lgl>   <lgl>        
#> 1      517        11 FALSE   TRUE         
#> 2      533        20 FALSE   FALSE        
#> 3      542        33 FALSE   FALSE        
#> 4      544       -18 FALSE   TRUE         
#> 5      554       -25 FALSE   FALSE        
#> 6      554        12 FALSE   TRUE         
#> # ℹ 336,770 more rows
…
H is.na(x) λειτουργεί με οποιονδήποτε τύπο διανύσματος και επιστρέφει TRUE για τιμές που λείπουν και FALSE για οτιδήποτε άλλο:

is.na(c(TRUE, NA, FALSE))
#> [1] FALSE  TRUE FALSE
is.na(c(1, NA, 3))
#> [1] FALSE  TRUE FALSE
is.na(c("a", NA, "b"))
#> [1] FALSE  TRUE FALSE

Μπορούμε να χρησιμοποιήσουμε την is.na() για να βρούμε όλες τις γραμμές με κενές τιμές στη dep_time:

flights |> 
  filter(is.na(dep_time))
#> # A tibble: 8,255 × 19
#>    year month   day dep_time sched_dep_time dep_delay arr_time sched_arr_time
#>   <int> <int> <int>    <int>          <int>     <dbl>    <int>          <int>
#> 1  2013     1     1       NA           1630        NA       NA           1815
#> 2  2013     1     1       NA           1935        NA       NA           2240
#> 3  2013     1     1       NA           1500        NA       NA           1825
#> 4  2013     1     1       NA            600        NA       NA            901
#> 5  2013     1     2       NA           1540        NA       NA           1747
#> 6  2013     1     2       NA           1620        NA       NA           1746
#> # ℹ 8,249 more rows
#> # ℹ 11 more variables: arr_delay <dbl>, carrier <chr>, flight <int>, …

Η is.na() μπορεί επίσης να είναι χρήσιμη στην arrange(). Η arrange() συνήθως βάζει όλες τις κενές τιμές στο τέλος, μπορείτε όμως να παρακάμψετε αυτήν την προεπιλογή ταξινομώντας πρώτα κατά is.na():

flights |> 
  filter(month == 1, day == 1) |> 
  arrange(dep_time)
#> # A tibble: 842 × 19
#>    year month   day dep_time sched_dep_time dep_delay arr_time sched_arr_time
#>   <int> <int> <int>    <int>          <int>     <dbl>    <int>          <int>
#> 1  2013     1     1      517            515         2      830            819
#> 2  2013     1     1      533            529         4      850            830
#> 3  2013     1     1      542            540         2      923            850
#> 4  2013     1     1      544            545        -1     1004           1022
#> 5  2013     1     1      554            600        -6      812            837
#> 6  2013     1     1      554            558        -4      740            728
#> # ℹ 836 more rows
#> # ℹ 11 more variables: arr_delay <dbl>, carrier <chr>, flight <int>, …

flights |> 
  filter(month == 1, day == 1) |> 
  arrange(desc(is.na(dep_time)), dep_time)
#> # A tibble: 842 × 19
#>    year month   day dep_time sched_dep_time dep_delay arr_time sched_arr_time
#>   <int> <int> <int>    <int>          <int>     <dbl>    <int>          <int>
#> 1  2013     1     1       NA           1630        NA       NA           1815
#> 2  2013     1     1       NA           1935        NA       NA           2240
#> 3  2013     1     1       NA           1500        NA       NA           1825
#> 4  2013     1     1       NA            600        NA       NA            901
#> 5  2013     1     1      517            515         2      830            819
#> 6  2013     1     1      533            529         4      850            830
#> # ℹ 836 more rows
#> # ℹ 11 more variables: arr_delay <dbl>, carrier <chr>, flight <int>, …
…
Για να καταλάβετε τι συμβαίνει, σκεφτείτε το NA | TRUE (NA είτε TRUE). Μία κενή τιμή σε ένα λογικό διάνυσμα σημαίνει ότι η τιμή μπορεί να είναι TRUE ή FALSE. Τα TRUE | TRUE και FALSE | TRUE είναι και τα δύο TRUE, επειδή τουλάχιστον ένα από αυτά είναι TRUE. Το NA | TRUE πρέπει επίσης να είναι TRUE επειδή το NA μπορεί να είναι είτε TRUE είτε FALSE. Ωστόσο, το NA | FALSE είναι NA, επειδή δεν γνωρίζουμε αν το NA είναι TRUE ή FALSE. Παρόμοια λογική ισχύει και για το NA & FALSE.

12.3.2 Σειρά πράξεων

Σημειώστε ότι η σειρά των πράξεων δεν λειτουργεί όπως στα ελληνικά. Δείτε τον παρακάτω κώδικα που βρίσκει όλες τις πτήσεις που αναχώρησαν τον Νοέμβριο ή τον Δεκέμβριο:

flights |> 
   filter(month == 11 | month == 12)

Μπορεί να μπείτε στον πειρασμό να το γράψετε όπως θα λέγατε στα Ελληνικά: “Βρές όλες τις πτήσεις που αναχώρησαν τον Νοέμβριο ή τον Δεκέμβριο.”:

flights |> 
   filter(month == 11 | 12)
#> # A tibble: 336,776 × 19
#>    year month   day dep_time sched_dep_time dep_delay arr_time sched_arr_time
#>   <int> <int> <int>    <int>          <int>     <dbl>    <int>          <int>
#> 1  2013     1     1      517            515         2      830            819
#> 2  2013     1     1      533            529         4      850            830
#> 3  2013     1     1      542            540         2      923            850
#> 4  2013     1     1      544            545        -1     1004           1022
#> 5  2013     1     1      554            600        -6      812            837
#> 6  2013     1     1      554            558        -4      740            728
#> # ℹ 336,770 more rows
#> # ℹ 11 more variables: arr_delay <dbl>, carrier <chr>, flight <int>, …

Αυτός ο κώδικας δεν βγάζει κάποιο σφάλμα, αλλά επίσης δεν φαίνεται και να έχει δουλέψει. Τι συμβαίνει;

Εδώ, η R αξιολογεί πρώτα το month == 11 δημιουργώντας ένα λογικό διάνυσμα, το οποίο ονομάζουμε nov. Υπολογίζει, άρα, το nov | 12. Όταν χρησιμοποιείτε έναν αριθμό με έναν λογικό τελεστή, τα πάντα εκτός από το 0 μετατρέπονται σε TRUE, οπότε αυτό ισοδυναμεί με nov | TRUE που θα είναι πάντα TRUE, επομένως θα επιλεγούν όλες οι γραμμές:

flights |> 
  mutate(
    nov = month == 11,
    final = nov | 12,
    .keep = "used"
  )
#> # A tibble: 336,776 × 3
#>   month nov   final
#>   <int> <lgl> <lgl>
#> 1     1 FALSE TRUE 
#> 2     1 FALSE TRUE 
#> 3     1 FALSE TRUE 
#> 4     1 FALSE TRUE 
#> 5     1 FALSE TRUE 
#> 6     1 FALSE TRUE 
#> # ℹ 336,770 more rows
…
flights |> 
  filter(month %in% c(11, 12))

Σημειώστε ότι το %in% υπακούει σε διαφορετικούς κανόνες απο αυτούς του == για τα NA, καθώς το NA %in% NA είναι TRUE.

c(1, 2, NA) == NA
#> [1] NA NA NA
c(1, 2, NA) %in% NA
#> [1] FALSE FALSE  TRUE

Το παραπάνω δημιουργεί μία χρήσιμη συντόμευση:

flights |> 
  filter(dep_time %in% c(NA, 0800))
#> # A tibble: 8,803 × 19
#>    year month   day dep_time sched_dep_time dep_delay arr_time sched_arr_time
#>   <int> <int> <int>    <int>          <int>     <dbl>    <int>          <int>
#> 1  2013     1     1      800            800         0     1022           1014
#> 2  2013     1     1      800            810       -10      949            955
#> 3  2013     1     1       NA           1630        NA       NA           1815
#> 4  2013     1     1       NA           1935        NA       NA           2240
#> 5  2013     1     1       NA           1500        NA       NA           1825
#> 6  2013     1     1       NA            600        NA       NA            901
#> # ℹ 8,797 more rows
#> # ℹ 11 more variables: arr_delay <dbl>, carrier <chr>, flight <int>, …
…
12.4.1 Λογικές συνόψεις

Υπάρχουν δύο κύριες συναρτήσεις λογικών συνόψεων: η any() και η all(). Η any(x) είναι το ισοδύναμη του | και θα επιστρέψει TRUE εάν υπάρχουν τιμές TRUE στο x. Η all(x) ισοδυναμεί με το & και θα επιστρέψει TRUE μόνο εάν όλες οι τιμές του x είναι TRUE. Όπως και όλες οι συναρτήσεις σύνοψης, έτσι και αυτές θα επιστρέψουν NA εάν υπάρχουν κενές τιμές και, ως συνήθως, μπορείτε να τις αγνοήσετε με το na.rm = TRUE.

Για παράδειγμα, θα μπορούσαμε να χρησιμοποιήσουμε την all() και την any() για να μάθουμε εάν κάθε πτήση καθυστέρησε κατά την αναχώρηση κατά μία ώρα το πολύ, ή εάν κάποια πτήση είχε καθυστέρηση κατά την άφιξη κατά πέντε ώρες ή περισσότερο. Η χρήση της group_by() μας επιτρέπει να το κάνουμε αυτό και ανά ημέρα:

flights |> 
  group_by(year, month, day) |> 
  summarize(
    all_delayed = all(dep_delay <= 60, na.rm = TRUE),
    any_long_delay = any(arr_delay >= 300, na.rm = TRUE),
    .groups = "drop"
  )
#> # A tibble: 365 × 5
#>    year month   day all_delayed any_long_delay
#>   <int> <int> <int> <lgl>       <lgl>         
#> 1  2013     1     1 FALSE       TRUE          
#> 2  2013     1     2 FALSE       TRUE          
#> 3  2013     1     3 FALSE       FALSE         
#> 4  2013     1     4 FALSE       FALSE         
#> 5  2013     1     5 FALSE       TRUE          
#> 6  2013     1     6 FALSE       FALSE         
#> # ℹ 359 more rows
…
12.4.2 Αριθμητικές συνόψεις λογικών διανυσμάτων

Όταν χρησιμοποιείτε ένα λογικό διάνυσμα σε ένα αριθμητικό γενικό πλαίσιο, το TRUE γίνεται 1 και το FALSE γίνεται 0. Αυτό κάνει τις sum() και mean() πολύ χρήσιμες με λογικά διανύσματα, επειδή η sum(x) δίνει τον αριθμό των TRUE και η mean(x) δίνει την αναλογία των TRUE (γιατί η mean() διαιρείται απλώς με την sum()) με την length().

Αυτό, για παράδειγμα, μας επιτρέπει να δούμε το ποσοστό των πτήσεων που καθυστέρησαν κατά την αναχώρηση κατά μία ώρα το πολύ, αλλά και τον αριθμό των πτήσεων που καθυστέρησαν κατά την άφιξη κατά πέντε ώρες ή περισσότερο:

flights |> 
  group_by(year, month, day) |> 
  summarize(
    proportion_delayed = mean(dep_delay <= 60, na.rm = TRUE),
    count_long_delay = sum(arr_delay >= 300, na.rm = TRUE),
    .groups = "drop"
  )
#> # A tibble: 365 × 5
#>    year month   day proportion_delayed count_long_delay
#>   <int> <int> <int>              <dbl>            <int>
#> 1  2013     1     1              0.939                3
#> 2  2013     1     2              0.914                3
#> 3  2013     1     3              0.941                0
#> 4  2013     1     4              0.953                0
#> 5  2013     1     5              0.964                1
#> 6  2013     1     6              0.959                0
#> # ℹ 359 more rows
12.4.3 Λογική δημιουργία υποσυνόλων

Υπάρχει μία τελευταία χρήση για τα λογικά διανύσματα στις συνόψεις: μπορείτε να χρησιμοποιήσετε ένα λογικό διάνυσμα για να φιλτράρετε μία μεταβλητή σε ένα υποσύνολο. Αυτό χρησιμοποιεί τον βασικό τελεστή [ (ονομάζεται τελεστής υποσυνόλου), για τον οποίο θα μάθετε περισσότερα στην Ενότητα 27.2.

Φανταστείτε ότι θέλαμε να δούμε τη μέση καθυστέρηση μόνο για πτήσεις που είχαν όντως καθυστέρηση. Ένας τρόπος για να το κάνετε αυτό θα ήταν να φιλτράρετε πρώτα τις πτήσεις και στη συνέχεια να υπολογίσετε τη μέση καθυστέρηση:

flights |> 
  filter(arr_delay > 0) |> 
  group_by(year, month, day) |> 
  summarize(
    behind = mean(arr_delay),
    n = n(),
    .groups = "drop"
  )
#> # A tibble: 365 × 5
#>    year month   day behind     n
#>   <int> <int> <int>  <dbl> <int>
#> 1  2013     1     1   32.5   461
#> 2  2013     1     2   32.0   535
#> 3  2013     1     3   27.7   460
#> 4  2013     1     4   28.3   297
#> 5  2013     1     5   22.6   238
#> 6  2013     1     6   24.4   381
#> # ℹ 359 more rows
Αυτό λειτουργεί, αλλά τι θα γινόταν αν θέλαμε να υπολογίσουμε και τη μέση καθυστέρηση για πτήσεις που έφτασαν νωρίς;

Θα πρέπει να εκτελέσουμε ένα ξεχωριστό βήμα φιλτραρίσματος και, στη συνέχεια, να καταλάβουμε πώς να συνδυάσουμε τα δύο πλαίσια δεδομένων μαζί3. Αντ’ αυτού, θα μπορούσατε να χρησιμοποιήσετε το [ για να εφαρμόσετε το φίλτρο: το arr_delay[arr_delay > 0] θα επιστρέψει μόνο τις θετικές καθυστερήσεις άφιξης.

Αυτό οδηγεί στο:

flights |> 
  group_by(year, month, day) |> 
  summarize(
    behind = mean(arr_delay[arr_delay > 0], na.rm = TRUE),
    ahead = mean(arr_delay[arr_delay < 0], na.rm = TRUE),
    n = n(),
    .groups = "drop"
  )
#> # A tibble: 365 × 6
#>    year month   day behind ahead     n
#>   <int> <int> <int>  <dbl> <dbl> <int>
#> 1  2013     1     1   32.5 -12.5   842
#> 2  2013     1     2   32.0 -14.3   943
#> 3  2013     1     3   27.7 -18.2   914
#> 4  2013     1     4   28.3 -17.0   915
#> 5  2013     1     5   22.6 -14.0   720
#> 6  2013     1     6   24.4 -13.6   832
#> # ℹ 359 more rows
…
Ακριβώς όπως και με την if_else() μπορείτε να χρησιμοποιήσετε μεταβλητές και στις δύο πλευρές του ~ και μπορείτε να συνδυάσετε και να ταιριάξετε μεταβλητές όπως χρειάζεστε για το πρόβλημά σας. Για παράδειγμα, θα μπορούσαμε να χρησιμοποιήσουμε την case_when() για να παρέχουμε ορισμένους κατανοητούς χαρακτηρισμούς για την καθυστέρηση άφιξης:

flights |> 
  mutate(
    status = case_when(
      is.na(arr_delay)      ~ "cancelled",
      arr_delay < -30       ~ "very early",
      arr_delay < -15       ~ "early",
      abs(arr_delay) <= 15  ~ "on time",
      arr_delay < 60        ~ "late",
      arr_delay < Inf       ~ "very late",
    ),
    .keep = "used"
  )
#> # A tibble: 336,776 × 2
#>   arr_delay status 
#>       <dbl> <chr>  
#> 1        11 on time
#> 2        20 late   
#> 3        33 late   
#> 4       -18 early  
#> 5       -25 early  
#> 6        12 on time
#> # ℹ 336,770 more rows
…
