Η R για την Επιστήμη των Δεδομένων (2η έκδοση) - 18 Κενές τιμές
…
Από προεπιλογή, η επιμήκυνση των δεδομένων διατηρεί τις ρητά κενές τιμές, αλλά εάν υπάρχουν δομικά κενές τιμές που υπάρχουν μόνο επειδή τα δεδομένα δεν είναι τακτοποιημένα, μπορείτε να τις απορρίψετε (να τις κάνετε έμμεσες) με το όρισμα values_drop_na = TRUE. Δείτε τα παραδείγματα στην Ενότητα 5.2 για περισσότερες λεπτομέρειες.

18.3.2 Πλήρη (Complete) δεδομένα

Η συνάρτηση tidyr::complete() σας επιτρέπει να δημιουργήσετε ρητά κενές τιμές παρέχοντας ένα σύνολο μεταβλητών που ορίζουν τον συνδυασμό των γραμμών που θα πρέπει να υπάρχουν. Για παράδειγμα, γνωρίζουμε ότι όλοι οι συνδυασμοί των year και qtr θα πρέπει να υπάρχουν στα δεδομένα του stocks:

stocks |>
  complete(year, qtr)
#> # A tibble: 8 × 3
#>    year   qtr price
#>   <dbl> <dbl> <dbl>
#> 1  2020     1  1.88
#> 2  2020     2  0.59
#> 3  2020     3  0.35
#> 4  2020     4 NA   
#> 5  2021     1 NA   
#> 6  2021     2  0.92
#> # ℹ 2 more rows

Συνήθως, θα καλέσετε την complete() χρησιμοποιώντας τα ονόματα μεταβλητών που υπάρχουν στα δεδομένα σας, συμπληρώνοντας τους συνδυασμούς που λείπουν. Ωστόσο, μερικές φορές οι μεμονωμένες μεταβλητές είναι οι ίδιες ημιτελείς, επομένως μπορείτε να παρέχετε τα δικά σας δεδομένα. Για παράδειγμα, μπορεί να γνωρίζετε ότι το σύνολο δεδομένων stocks υποτίθεται ότι καλύπτει το διάστημα από το 2019 έως το 2021, επομένως θα μπορούσατε να παρέχετε ρητά αυτές τις τιμές για τη μεταβλητή year:

stocks |>
  complete(year = 2019:2021, qtr)
#> # A tibble: 12 × 3
#>    year   qtr price
#>   <dbl> <dbl> <dbl>
#> 1  2019     1 NA   
#> 2  2019     2 NA   
#> 3  2019     3 NA   
#> 4  2019     4 NA   
#> 5  2020     1  1.88
#> 6  2020     2  0.59
#> # ℹ 6 more rows
…
flights |> 
  distinct(tailnum) |> 
  anti_join(planes)
#> Joining with `by = join_by(tailnum)`
#> # A tibble: 722 × 1
#>   tailnum
#>   <chr>  
#> 1 N3ALAA 
#> 2 N3DUAA 
#> 3 N542MQ 
#> 4 N730MQ 
#> 5 N9EAMQ 
#> 6 N532UA 
#> # ℹ 716 more rows
…
