Η R για την Επιστήμη των Δεδομένων (2η έκδοση) - 13 Αριθμητικά διανύσματα
…
Χρησιμοποιήστε την parse_number() όταν η συμβολοσειρά περιέχει μη αριθμητικό κείμενο που θέλετε να αγνοήσετε. Είναι ιδιαίτερα χρήσιμη για δεδομένα συναλλάγματος και ποσοστά:

x <- c("$1,234", "USD 3,513", "59%")
parse_number(x)
#> [1] 1234 3513   59

13.3 Καταμετρήσεις

Είναι εκπληκτικό το πόση επιστήμη δεδομένων μπορείτε να εφαρμόσετε χρησιμοποιώντας μόνο μετρήσεις και λίγη βασική αριθμητική. Για αυτό, το πακέτο dplyr προσπαθεί να κάνει τη μέτρηση όσο το δυνατόν πιο εύκολη με την count(). Η συνάρτηση αυτή είναι εξαιρετική για γρήγορη εξερεύνηση και ελέγχους κατά την ανάλυση των δεδομένων:

flights |> count(dest)
#> # A tibble: 105 × 2
#>   dest      n
#>   <chr> <int>
#> 1 ABQ     254
#> 2 ACK     265
#> 3 ALB     439
#> 4 ANC       8
#> 5 ATL   17215
#> 6 AUS    2439
#> # ℹ 99 more rows

(Παρά τις συμβουλές της ενότητας Κεφάλαιο 4, συνήθως βάζουμε την count() σε μία ξεχωριστή γραμμή καθώς συχνά χρησιμοποιείται στην κονσόλα για να ελέγξουμε γρήγορα ότι ένας υπολογισμός λειτουργεί όπως αναμένεται.)

Εάν θέλετε να δείτε τις πιο συνηθισμένες τιμές, προσθέστε το όρισμα sort = TRUE:

flights |> count(dest, sort = TRUE)
#> # A tibble: 105 × 2
#>   dest      n
#>   <chr> <int>
#> 1 ORD   17283
#> 2 ATL   17215
#> 3 LAX   16174
#> 4 BOS   15508
#> 5 MCO   14082
#> 6 CLT   14064
#> # ℹ 99 more rows

Και να θυμάστε ότι εάν θέλετε να δείτε όλες τις τιμές, μπορείτε να χρησιμοποιήσετε το |> View() ή το |> print(n = Inf).

Μπορείτε να εκτελέσετε τον ίδιο υπολογισμό “με το χέρι” με τις group_by(), summarize() και n(). Αυτό είναι χρήσιμο επειδή σας επιτρέπει να υπολογίζετε και άλλες περιλήψεις ταυτόχρονα:

flights |> 
  group_by(dest) |> 
  summarize(
    n = n(),
    delay = mean(arr_delay, na.rm = TRUE)
  )
#> # A tibble: 105 × 3
#>   dest      n delay
#>   <chr> <int> <dbl>
#> 1 ABQ     254  4.38
#> 2 ACK     265  4.85
#> 3 ALB     439 14.4 
#> 4 ANC       8 -2.5 
#> 5 ATL   17215 11.3 
#> 6 AUS    2439  6.02
#> # ℹ 99 more rows
…
n()
#> Error in `n()`:
#> ! Must only be used inside data-masking verbs like `mutate()`,
#>   `filter()`, and `group_by()`.

Υπάρχουν μερικές παραλλαγές της n() και της count() που μπορεί να σας φανούν χρήσιμες:

Η n_distinct(x) μετρά τον αριθμό των διακριτών (μοναδικών) τιμών μιας ή περισσότερων μεταβλητών. Για παράδειγμα, θα μπορούσαμε να καταλάβουμε ποιοι προορισμοί εξυπηρετούνται από τις περισσότερες εταιρείες:

flights |> 
  group_by(dest) |> 
  summarize(carriers = n_distinct(carrier)) |> 
  arrange(desc(carriers))
#> # A tibble: 105 × 2
#>   dest  carriers
#>   <chr>    <int>
#> 1 ATL          7
#> 2 BOS          7
#> 3 CLT          7
#> 4 ORD          7
#> 5 TPA          7
#> 6 AUS          6
#> # ℹ 99 more rows

Μία σταθμισμένη καταμέτρηση είναι ένα άθροισμα. Για παράδειγμα, θα μπορούσατε να “μετρήσετε” τον αριθμό των μιλίων που πέταξε κάθε αεροπλάνο:

flights |> 
  group_by(tailnum) |> 
  summarize(miles = sum(distance))
#> # A tibble: 4,044 × 2
#>   tailnum  miles
#>   <chr>    <dbl>
#> 1 D942DN    3418
#> 2 N0EGMQ  250866
#> 3 N10156  115966
#> 4 N102UW   25722
#> 5 N103US   24619
#> 6 N104UW   25157
#> # ℹ 4,038 more rows

Οι σταθμισμένες καταμετρήσεις είναι ένα κοινό πρόβλημα, επομένως η count() έχει το όρισμα wt που λαμβάνει υπόψη ακριβώς αυτό:

flights |> count(tailnum, wt = distance)

Μπορείτε να μετρήσετε τις τιμές που λείπουν συνδυάζοντας την sum() και την is.na(). Στο σύνολο δεδομένων flights αυτό αντιπροσωπεύει πτήσεις που ακυρώνονται:

flights |> 
  group_by(dest) |> 
  summarize(n_cancelled = sum(is.na(dep_time))) 
#> # A tibble: 105 × 2
#>   dest  n_cancelled
#>   <chr>       <int>
#> 1 ABQ             0
#> 2 ACK             0
#> 3 ALB            20
#> 4 ANC             0
#> 5 ATL           317
#> 6 AUS            21
#> # ℹ 99 more rows
…
Γενικά, θέλετε να ανακυκλώσετε μόνο μεμονωμένους αριθμούς (δηλαδή διανύσματα μήκους 1), αλλά η R θα ανακυκλώσει οποιοδήποτε διάνυσμα μικρότερου μήκους. Συνήθως (αλλά όχι πάντα) σας δίνει μία προειδοποίηση εάν το μεγαλύτερο διάνυσμα δεν είναι πολλαπλάσιο του μικρότερου:

x * c(1, 2)
#> [1]  1  4 10 40
x * c(1, 2, 3)
#> Warning in x * c(1, 2, 3): longer object length is not a multiple of shorter
#> object length
#> [1]  1  4 30 20

Αυτοί οι κανόνες ανακύκλωσης εφαρμόζονται επίσης σε λογικές συγκρίσεις (==, <, <=, >, >=, !=) και μπορούν να οδηγήσουν σε ένα απροσδόκητο αποτέλεσμα εάν χρησιμοποιήσετε κατά λάθος το == αντί για το %in% και το πλαίσιο δεδομένων έχει έναν μη αναμενόμενο αριθμό γραμμών. Για παράδειγμα, πάρτε τον παρακάτω κώδικα ο οποίος προσπαθεί να βρει όλες τις πτήσεις τον Ιανουάριο και τον Φεβρουάριο:

flights |> 
  filter(month == c(1, 2))
#> # A tibble: 25,977 × 19
#>    year month   day dep_time sched_dep_time dep_delay arr_time sched_arr_time
#>   <int> <int> <int>    <int>          <int>     <dbl>    <int>          <int>
#> 1  2013     1     1      517            515         2      830            819
#> 2  2013     1     1      542            540         2      923            850
#> 3  2013     1     1      554            600        -6      812            837
#> 4  2013     1     1      555            600        -5      913            854
#> 5  2013     1     1      557            600        -3      838            846
#> 6  2013     1     1      558            600        -2      849            851
#> # ℹ 25,971 more rows
#> # ℹ 11 more variables: arr_delay <dbl>, carrier <chr>, flight <int>, …
…
1:10 %/% 3
#>  [1] 0 0 1 1 1 2 2 2 3 3
1:10 %% 3
#>  [1] 1 2 0 1 2 0 1 2 0 1

Η αριθμητική υπολοίπων είναι χρήσιμη για το σύνολο δεδομένων flights, καθώς μπορούμε να τη χρησιμοποιήσουμε για να αποσυνθέσουμε τη μεταβλητή sched_dep_time σε hour (ώρα) και minute (λεπτό):

flights |> 
  mutate(
    hour = sched_dep_time %/% 100,
    minute = sched_dep_time %% 100,
    .keep = "used"
  )
#> # A tibble: 336,776 × 3
#>   sched_dep_time  hour minute
#>            <int> <dbl>  <dbl>
#> 1            515     5     15
#> 2            529     5     29
#> 3            540     5     40
#> 4            545     5     45
#> 5            600     6      0
#> 6            558     5     58
#> # ℹ 336,770 more rows
…
Μπορείτε να πετύχετε ίδια αποτελέσματα με πολλές από τις παραπάνω συναρτήσεις επιλέγοντας την κατάλληλη τιμή στο όρισμα ties.method στην rank() του βασικού πακέτου λειτουργιών της R. Πιθανότατα θα θέλετε επίσης να ορίσετε το na.last = "keep" για να διατηρήσετε τα NA ως NA.

Η row_number() μπορεί επίσης να χρησιμοποιηθεί χωρίς ορίσματα όταν βρίσκεται μέσα σε μία συνάρτηση της dplyr. Σε αυτήν την περίπτωση, θα δώσει τον αριθμό της “τρέχουσας” γραμμής. Επιπλέον, όταν συνδυαστεί με το %% ή το %/%, μπορεί να γίνει ένα χρήσιμο εργαλείο για τη διαίρεση δεδομένων σε ομάδες παρόμοιου μεγέθους:

df <- tibble(id = 1:10)

df |> 
  mutate(
    row0 = row_number() - 1,
    three_groups = row0 %% 3,
    three_in_each_group = row0 %/% 3
  )
#> # A tibble: 10 × 4
#>      id  row0 three_groups three_in_each_group
#>   <int> <dbl>        <dbl>               <dbl>
#> 1     1     0            0                   0
#> 2     2     1            1                   0
#> 3     3     2            2                   0
#> 4     4     3            0                   1
#> 5     5     4            1                   1
#> 6     6     5            2                   1
#> # ℹ 4 more rows
…
Μερικές φορές θέλετε να ξεκινήσετε μία νέα ομάδα κάθε φορά που κάποιο συμβάν λαμβάνει χώρα. Για παράδειγμα, όταν έχετε να κάνετε με δεδομένα ιστοτόπου, είναι σύνηθες να θέλετε να χωρίσετε τα συμβάντα σε περιόδους σύνδεσης, ξεκινώντας μία νέα περίοδο μετά από ένα κενό άνω των x λεπτών από την τελευταία δραστηριότητα. Για παράδειγμα, φανταστείτε ότι έχετε τις στιγμές που κάποιος επισκέφτηκε έναν ιστότοπο:

events <- tibble(
  time = c(0, 1, 2, 3, 5, 10, 12, 15, 17, 19, 20, 27, 28, 30)
)

Έχετε υπολογίσει το χρόνο μεταξύ κάθε γεγονότος και έχετε βρει εάν υπάρχει κάποιο κενό αρκετά μεγάλο για να πληροί τις προϋποθέσεις:

events <- events |> 
  mutate(
    diff = time - lag(time, default = first(time)),
    has_gap = diff >= 5
  )
events
#> # A tibble: 14 × 3
#>    time  diff has_gap
#>   <dbl> <dbl> <lgl>  
#> 1     0     0 FALSE  
#> 2     1     1 FALSE  
#> 3     2     1 FALSE  
#> 4     3     1 FALSE  
#> 5     5     2 FALSE  
#> 6    10     5 TRUE   
#> # ℹ 8 more rows

Αλλά πώς πηγαίνουμε από αυτό το λογικό διάνυσμα σε κάτι που μπορούμε να εφαρμόσουμε την group_by();

H cumsum(), από την Ενότητα 13.4.7, σώζει την κατάσταση, καθώς όταν η has_gap είναι TRUE, θα αυξήσει την group κατά ένα (Ενότητα 12.4.2):

events |> mutate(
  group = cumsum(has_gap)
)
#> # A tibble: 14 × 4
#>    time  diff has_gap group
#>   <dbl> <dbl> <lgl>   <int>
#> 1     0     0 FALSE       0
#> 2     1     1 FALSE       0
#> 3     2     1 FALSE       0
#> 4     3     1 FALSE       0
#> 5     5     2 FALSE       0
#> 6    10     5 TRUE        1
#> # ℹ 8 more rows

Μία άλλη προσέγγιση για τη δημιουργία μεταβλητών ομαδοποίησης είναι η consecutive_id(), η οποία ξεκινά μία νέα ομάδα κάθε φορά που αλλάζει ένα από τα ορίσματά της. Για παράδειγμα, εμπνευσμένο από αυτή την ερώτηση στο stackoverflow, φανταστείτε ότι έχετε ένα πλαίσιο δεδομένων με επαναλαμβανόμενες τιμές:

df <- tibble(
  x = c("a", "a", "a", "b", "c", "c", "d", "e", "a", "a", "b", "b"),
  y = c(1, 2, 3, 2, 4, 1, 3, 9, 4, 8, 10, 199)
)

Εάν θέλετε να διατηρήσετε την πρώτη γραμμή από κάθε επαναλαμβανόμενο x, μπορείτε να χρησιμοποιήσετε τις group_by(), consecutive_id() και slice_head():

df |> 
  group_by(id = consecutive_id(x)) |> 
  slice_head(n = 1)
#> # A tibble: 7 × 3
#> # Groups:   id [7]
#>   x         y    id
#>   <chr> <dbl> <int>
#> 1 a         1     1
#> 2 b         2     2
#> 3 c         4     3
#> 4 d         3     4
#> 5 e         9     5
#> 6 a         4     6
#> # ℹ 1 more row
…
Τι γίνεται αν ενδιαφέρεστε για άλλες θέσεις εκτός από το κέντρο;

Οι min() και max() θα σας δώσουν τις μεγαλύτερες και τις μικρότερες τιμές αντίστοιχα. Ένα άλλο ισχυρό εργαλείο είναι η συνάρτηση quantile() που είναι μία γενίκευση της διάμεσης τιμής: η quantile(x, 0.25) θα βρει την τιμή του x που είναι μεγαλύτερη από το 25% των τιμών, η quantile(x, 0.5) ισοδυναμεί με τη διάμεσο και η quantile(x, 0.95) θα βρει την τιμή που είναι μεγαλύτερη από το 95% των τιμών.

Για το σύνολο δεδομένων flights, ίσως θελήσετε να εξετάσετε το 95% των καθυστερήσεων και όχι τον μέγιστο αριθμό, καθώς θα αγνοήσει το 5% των περισσότερων καθυστερημένων πτήσεων, οι οποίες μπορεί να είναι αρκετά ακραίες.

flights |>
  group_by(year, month, day) |>
  summarize(
    max = max(dep_delay, na.rm = TRUE),
    q95 = quantile(dep_delay, 0.95, na.rm = TRUE),
    .groups = "drop"
  )
#> # A tibble: 365 × 5
#>    year month   day   max   q95
#>   <int> <int> <int> <dbl> <dbl>
#> 1  2013     1     1   853  70.1
#> 2  2013     1     2   379  85  
#> 3  2013     1     3   291  68  
#> 4  2013     1     4   288  60  
#> 5  2013     1     5   327  41  
#> 6  2013     1     6   202  51  
#> # ℹ 359 more rows
…
Υπάρχει ένας τελικός τύπος σύνοψης που είναι χρήσιμος για αριθμητικά διανύσματα, αλλά λειτουργεί επίσης και με κάθε άλλο τύπο τιμής: η εξαγωγή μιας τιμής που βρίσκεται σε μία συγκεκριμένη θέση: first(x), last(x) και nth(x, n).

Για παράδειγμα, μπορούμε να βρούμε την πρώτη, την πέμπτη και την τελευταία αναχώρηση για κάθε ημέρα:

flights |> 
  group_by(year, month, day) |> 
  summarize(
    first_dep = first(dep_time, na_rm = TRUE), 
    fifth_dep = nth(dep_time, 5, na_rm = TRUE),
    last_dep = last(dep_time, na_rm = TRUE)
  )
#> `summarise()` has grouped output by 'year', 'month'. You can override using
#> the `.groups` argument.
#> # A tibble: 365 × 6
#> # Groups:   year, month [12]
#>    year month   day first_dep fifth_dep last_dep
#>   <int> <int> <int>     <int>     <int>    <int>
#> 1  2013     1     1       517       554     2356
#> 2  2013     1     2        42       535     2354
#> 3  2013     1     3        32       520     2349
#> 4  2013     1     4        25       531     2358
#> 5  2013     1     5        14       534     2357
#> 6  2013     1     6        16       555     2355
#> # ℹ 359 more rows

(Σημείωση: Επειδή οι συναρτήσεις της dplyr χρησιμοποιούν το _ για να διαχωρίσουν τα στοιχεία των ονομάτων και των ορισμάτων τους, οι συναρτήσεις αυτές χρησιμοποιούν το na_rm αντί για το na.rm.)

Εάν είστε εξοικειωμένοι με το [, στο οποίο θα επανέλθουμε στην Ενότητα 27.2, ίσως αναρωτηθείτε εάν οι συναρτήσεις αυτές θα σας χρειαστούν. Υπάρχουν τρεις λόγοι: το όρισμα default σας επιτρέπει να παρέχετε μία προεπιλογή εάν δεν υπάρχει η καθορισμένη θέση, το όρισμα order_by σας επιτρέπει να παρακάμψετε τοπικά τη σειρά των γραμμών και το όρισμα na_rm σας επιτρέπει να απορρίψετε τις κενές τιμές.

Η εξαγωγή τιμών βάσει θέσης είναι συμπληρωματική στο φιλτράρισμα στις κατατάξεις. Το φιλτράρισμα σας δίνει όλες τις μεταβλητές, με κάθε παρατήρηση να βρίσκετε σε ξεχωριστή γραμμή:

flights |> 
  group_by(year, month, day) |> 
  mutate(r = min_rank(sched_dep_time)) |> 
  filter(r %in% c(1, max(r)))
#> # A tibble: 1,195 × 20
#> # Groups:   year, month, day [365]
#>    year month   day dep_time sched_dep_time dep_delay arr_time sched_arr_time
#>   <int> <int> <int>    <int>          <int>     <dbl>    <int>          <int>
#> 1  2013     1     1      517            515         2      830            819
#> 2  2013     1     1     2353           2359        -6      425            445
#> 3  2013     1     1     2353           2359        -6      418            442
#> 4  2013     1     1     2356           2359        -3      425            437
#> 5  2013     1     2       42           2359        43      518            442
#> 6  2013     1     2      458            500        -2      703            650
#> # ℹ 1,189 more rows
#> # ℹ 12 more variables: arr_delay <dbl>, carrier <chr>, flight <int>, …
…
