Η R για την Επιστήμη των Δεδομένων (2η έκδοση) - 15 Λογικές εκφράσεις
…
Τώρα που έχετε εμπεδώσει τα βασικά των κανονικών εκφράσεων, ας τις χρησιμοποιήσουμε με ορισμένες συναρτήσεις από το πακέτο stringr και το πακέτο tidyr. Στην επόμενη ενότητα, θα μάθετε πώς να ανιχνεύετε την παρουσία ή την απουσία μιας αντιστοίχισης, πώς να μετράτε τον αριθμό των αντιστοιχιών, πώς να αντικαθιστάτε μία αντιστοίχιση με σταθερό κείμενο και πώς να εξάγετε κείμενο χρησιμοποιώντας ένα μοτίβο.

15.3.1 Ανίχνευση αντιστοιχιών

Η str_detect() επιστρέφει ένα λογικό διάνυσμα που είναι TRUE εάν το μοτίβο ταιριάζει με ένα στοιχείο του διανύσματος χαρακτήρων και FALSE σε διαφορετική περίπτωση:

str_detect(c("a", "b", "c"), "[aeiou]")
#> [1]  TRUE FALSE FALSE

Εφόσον η str_detect() επιστρέφει ένα λογικό διάνυσμα ίδιου μήκους με το αρχικό διάνυσμα, συνδυάζεται καλά με την filter(). Για παράδειγμα, αυτός ο κώδικας βρίσκει όλα τα πιο δημοφιλή ονόματα που περιέχουν ένα πεζό “x”:

babynames |> 
  filter(str_detect(name, "x")) |> 
  count(name, wt = n, sort = TRUE)
#> # A tibble: 974 × 2
#>   name           n
#>   <chr>      <int>
#> 1 Alexander 665492
#> 2 Alexis    399551
#> 3 Alex      278705
#> 4 Alexandra 232223
#> 5 Max       148787
#> 6 Alexa     123032
#> # ℹ 968 more rows
…
str_count("abababa", "aba")
#> [1] 2
str_view("abababa", "aba")
#> [1] │ <aba>b<aba>

Είναι αναμενόμενο να χρησιμοποιείτε την str_count() με την mutate(). Το παρακάτω παράδειγμα χρησιμοποιεί την str_count() με κατηγορίες χαρακτήρων για να μετρήσει τον αριθμό των φωνηέντων και των συμφώνων σε κάθε όνομα.

babynames |> 
  count(name) |> 
  mutate(
    vowels = str_count(name, "[aeiou]"),
    consonants = str_count(name, "[^aeiou]")
  )
#> # A tibble: 97,310 × 4
#>   name          n vowels consonants
#>   <chr>     <int>  <int>      <int>
#> 1 Aaban        10      2          3
#> 2 Aabha         5      2          3
#> 3 Aabid         2      2          3
#> 4 Aabir         1      2          3
#> 5 Aabriella     5      4          5
#> 6 Aada          1      2          2
#> # ℹ 97,304 more rows
…
Χρησιμοποιήστε την str_to_lower() για να μετατρέψετε τα ονόματα σε πεζά: str_count(str_to_lower(name), "[aeiou]").

Αυτή η ποικιλία προσεγγίσεων είναι αρκετά χαρακτηριστική όταν εργάζεστε με συμβολοσειρές — υπάρχουν συχνά πολλοί τρόποι για να πετύχετε τον στόχο σας, είτε κάνοντας το μοτίβο σας πιο περίπλοκο είτε κάνοντας κάποια προεπεξεργασία στη συμβολοσειρά σας. Εάν κολλήσετε δοκιμάζοντας μία προσέγγιση, μπορεί συχνά να είναι χρήσιμο να μειώσετε ρυθμούς και να αντιμετωπίσετε το πρόβλημα με διαφορετική οπτική.

Σε αυτήν την περίπτωση, καθώς εφαρμόζουμε δύο συναρτήσεις στο όνομα, νομίζω ότι είναι πιο εύκολο να το μετασχηματίσουμε πρώτα:

babynames |> 
  count(name) |> 
  mutate(
    name = str_to_lower(name),
    vowels = str_count(name, "[aeiou]"),
    consonants = str_count(name, "[^aeiou]")
  )
#> # A tibble: 97,310 × 4
#>   name          n vowels consonants
#>   <chr>     <int>  <int>      <int>
#> 1 aaban        10      3          2
#> 2 aabha         5      3          2
#> 3 aabid         2      3          2
#> 4 aabir         1      3          2
#> 5 aabriella     5      5          4
#> 6 aada          1      3          1
#> # ℹ 97,304 more rows
…
Για να εξαγάγουμε αυτά τα δεδομένα χρησιμοποιώντας την separate_wider_regex() πρέπει απλώς να δημιουργήσουμε μία ακολουθία κανονικών εκφράσεων που να ταιριάζουν με κάθε κομμάτι. Αν θέλουμε τα περιεχόμενα αυτού του κομματιού να εμφανίζονται στην έξοδο, του δίνουμε ένα όνομα:

df |> 
  separate_wider_regex(
    str,
    patterns = c(
      "<", 
      name = "[A-Za-z]+", 
      ">-", 
      gender = ".",
      "_",
      age = "[0-9]+"
    )
  )
#> # A tibble: 7 × 3
#>   name    gender age  
#>   <chr>   <chr>  <chr>
#> 1 Sheryl  F      34   
#> 2 Kisha   F      45   
#> 3 Brandon N      33   
#> 4 Sharon  F      38   
#> 5 Penny   F      58   
#> 6 Justin  M      41   
#> # ℹ 1 more row
…
Θα μπορούσατε όμως να το μετατρέψετε σε ένα tibble και να ονομάσετε τις στήλες κατάλληλα:

sentences |> 
  str_match("the (\\w+) (\\w+)") |> 
  as_tibble(.name_repair = "minimal") |> 
  set_names("match", "word1", "word2")
#> # A tibble: 720 × 3
#>   match             word1  word2 
#>   <chr>             <chr>  <chr> 
#> 1 the smooth planks smooth planks
#> 2 the sheet to      sheet  to    
#> 3 the depth of      depth  of    
#> 4 <NA>              <NA>   <NA>  
#> 5 <NA>              <NA>   <NA>  
#> 6 <NA>              <NA>   <NA>  
#> # ℹ 714 more rows
…
