Η R για την Επιστήμη των Δεδομένων (2η έκδοση) - 20 Υπολογιστικά φύλλα
…
Σχήμα 20.2: Υπολογιστικό φύλλο με όνομα penguins.xlsx στο Excel που περιέχει τρία φύλλα εργασίας.

Μπορείτε να διαβάσετε ένα μεμονωμένο φύλλο εργασίας από ένα υπολογιστικό φύλλο με το όρισμα sheet στη read_excel(). Η προεπιλογή, στην οποία βασιζόμασταν μέχρι τώρα, είναι το πρώτο φύλλο.

read_excel("data/penguins.xlsx", sheet = "Torgersen Island")
#> # A tibble: 52 × 8
#>   species island    bill_length_mm     bill_depth_mm      flipper_length_mm
#>   <chr>   <chr>     <chr>              <chr>              <chr>            
#> 1 Adelie  Torgersen 39.1               18.7               181              
#> 2 Adelie  Torgersen 39.5               17.399999999999999 186              
#> 3 Adelie  Torgersen 40.299999999999997 18                 195              
#> 4 Adelie  Torgersen NA                 NA                 NA               
#> 5 Adelie  Torgersen 36.700000000000003 19.3               193              
#> 6 Adelie  Torgersen 39.299999999999997 20.6               190              
#> # ℹ 46 more rows
#> # ℹ 3 more variables: body_mass_g <chr>, sex <chr>, year <dbl>

Ορισμένες μεταβλητές που φαίνεται να περιέχουν αριθμητικά δεδομένα διαβάζονται ως χαρακτήρες λόγω του ότι η συμβολοσειρά χαρακτήρων "NA" δεν αναγνωρίζεται ως πραγματικό NA.

penguins_torgersen <- read_excel("data/penguins.xlsx", sheet = "Torgersen Island", na = "NA")

penguins_torgersen
#> # A tibble: 52 × 8
#>   species island    bill_length_mm bill_depth_mm flipper_length_mm
#>   <chr>   <chr>              <dbl>         <dbl>             <dbl>
#> 1 Adelie  Torgersen           39.1          18.7               181
#> 2 Adelie  Torgersen           39.5          17.4               186
#> 3 Adelie  Torgersen           40.3          18                 195
#> 4 Adelie  Torgersen           NA            NA                  NA
#> 5 Adelie  Torgersen           36.7          19.3               193
#> 6 Adelie  Torgersen           39.3          20.6               190
#> # ℹ 46 more rows
#> # ℹ 3 more variables: body_mass_g <dbl>, sex <chr>, year <dbl>
…
Σε αυτήν την περίπτωση, το πλήρες σύνολο δεδομένων penguins κατανέμεται σε τρία φύλλα εργασίας μέσα στο υπολογιστικό φύλλο. Κάθε φύλλο εργασίας έχει τον ίδιο αριθμό στηλών αλλά διαφορετικό αριθμό σειρών.

dim(penguins_torgersen)
#> [1] 52  8
dim(penguins_biscoe)
#> [1] 168   8
dim(penguins_dream)
#> [1] 124   8

Μπορούμε να τα ενώσουμε με την bind_rows().

penguins <- bind_rows(penguins_torgersen, penguins_biscoe, penguins_dream)
penguins
#> # A tibble: 344 × 8
#>   species island    bill_length_mm bill_depth_mm flipper_length_mm
#>   <chr>   <chr>              <dbl>         <dbl>             <dbl>
#> 1 Adelie  Torgersen           39.1          18.7               181
#> 2 Adelie  Torgersen           39.5          17.4               186
#> 3 Adelie  Torgersen           40.3          18                 195
#> 4 Adelie  Torgersen           NA            NA                  NA
#> 5 Adelie  Torgersen           36.7          19.3               193
#> 6 Adelie  Torgersen           39.3          20.6               190
#> # ℹ 338 more rows
#> # ℹ 3 more variables: body_mass_g <dbl>, sex <chr>, year <dbl>
…
Σχήμα 20.3: Υπολογσιτικό φύλλο με όνομα deaths.xlsx στο Excel.

Αυτό το υπολογιστικό φύλλο είναι ένα από τα παραδείγματα που παρέχονται στο πακέτο readxl. Μπορείτε να χρησιμοποιήσετε τη συνάρτηση readxl_example() για να εντοπίσετε το υπολογιστικό φύλλο στο σύστημά σας στον κατάλογο όπου είναι εγκατεστημένο το πακέτο. Αυτή η συνάρτηση επιστρέφει το μονοπάτι προς το υπολογιστικό φύλλο, το οποίο μπορείτε να χρησιμοποιήσετε στην read_excel() ως συνήθως.

deaths_path <- readxl_example("deaths.xlsx")
deaths <- read_excel(deaths_path)
#> New names:
#> • `` -> `...2`
#> • `` -> `...3`
#> • `` -> `...4`
#> • `` -> `...5`
#> • `` -> `...6`
deaths
#> # A tibble: 18 × 6
#>   `Lots of people`    ...2       ...3  ...4     ...5          ...6           
#>   <chr>               <chr>      <chr> <chr>    <chr>         <chr>          
#> 1 simply cannot resi… <NA>       <NA>  <NA>     <NA>          some notes     
#> 2 at                  the        top   <NA>     of            their spreadsh…
#> 3 or                  merging    <NA>  <NA>     <NA>          cells          
#> 4 Name                Profession Age   Has kids Date of birth Date of death  
#> 5 David Bowie         musician   69    TRUE     17175         42379          
#> 6 Carrie Fisher       actor      60    TRUE     20749         42731          
#> # ℹ 12 more rows

Οι τρεις επάνω γραμμές και οι τέσσερις κάτω γραμμές δεν αποτελούν μέρος του πλαισίου δεδομένων. Οι εξωτερικές γραμμές μπορούν να αποφευχθούν χρησιμοποιώντας τα ορίσματα skip και n_max, συνιστούμε όμως τη χρήση εύρους κελιών. Στο Excel, το επάνω αριστερό κελί είναι το A1. Καθώς μετακινείστε στις στήλες προς τα δεξιά, η ετικέτα του κελιού μετακινείται προς τα κάτω στο αλφάβητο, δηλαδή B1, C1, κ.λπ. Και καθώς μετακινείστε προς τα κάτω σε μία στήλη, ο αριθμός στην ετικέτα του κελιού αυξάνεται, για παράδειγμα A2, A3 κ.λπ.

Εδώ τα δεδομένα που θέλουμε να διαβάσουμε ξεκινούν στο κελί A5 και τελειώνουν στο κελί F15. Σε όρους υπολογιστικών φύλλων, αυτό μεταφράζεται σε A5:F1, το οποίο και παρέχουμε στο όρισμα range:

read_excel(deaths_path, range = "A5:F15")
#> # A tibble: 10 × 6
#>   Name          Profession   Age `Has kids` `Date of birth`    
#>   <chr>         <chr>      <dbl> <lgl>      <dttm>             
#> 1 David Bowie   musician      69 TRUE       1947-01-08 00:00:00
#> 2 Carrie Fisher actor         60 TRUE       1956-10-21 00:00:00
#> 3 Chuck Berry   musician      90 TRUE       1926-10-18 00:00:00
#> 4 Bill Paxton   actor         61 TRUE       1955-05-17 00:00:00
#> 5 Prince        musician      57 TRUE       1958-06-07 00:00:00
#> 6 Alan Rickman  actor         69 FALSE      1946-02-21 00:00:00
#> # ℹ 4 more rows
#> # ℹ 1 more variable: `Date of death` <dttm>
…
Σημειώστε ότι ορίσαμε τους τύπους των στηλών λίγο διαφορετικά εδώ, χρησιμοποιώντας σύντομους κωδικούς. Για παράδειγμα, το “dcccc” σημαίνει “double, character, character, character, character”.

H ανάγνωση μεμονωμένων φύλλων από το Google Sheets είναι επίσης δυνατή. Ας διαβάσουμε το φύλλο “Torgersen Island” από το penguins Google Sheet:

penguins_sheet_id <- "1aFu8lnD_g0yjF5O-K6SFgSEWiHPpgvFCF0NY9D6LXnY"
read_sheet(penguins_sheet_id, sheet = "Torgersen Island")
#> ✔ Reading from penguins.
#> ✔ Range ''Torgersen Island''.
#> # A tibble: 52 × 8
#>   species island    bill_length_mm bill_depth_mm flipper_length_mm
#>   <chr>   <chr>     <list>         <list>        <list>           
#> 1 Adelie  Torgersen <dbl [1]>      <dbl [1]>     <dbl [1]>        
#> 2 Adelie  Torgersen <dbl [1]>      <dbl [1]>     <dbl [1]>        
#> 3 Adelie  Torgersen <dbl [1]>      <dbl [1]>     <dbl [1]>        
#> 4 Adelie  Torgersen <chr [1]>      <chr [1]>     <chr [1]>        
#> 5 Adelie  Torgersen <dbl [1]>      <dbl [1]>     <dbl [1]>        
#> 6 Adelie  Torgersen <dbl [1]>      <dbl [1]>     <dbl [1]>        
#> # ℹ 46 more rows
#> # ℹ 3 more variables: body_mass_g <list>, sex <chr>, year <dbl>

Μπορείτε να πάρετε μία λίστα με όλα τα φύλλα σε ένα Google Sheet με την sheet_names():

sheet_names(penguins_sheet_id)
#> [1] "Torgersen Island" "Biscoe Island"    "Dream Island"

Τέλος, όπως και με την read_excel(), μπορούμε να διαβάσουμε σε ένα τμήμα ενός Google Sheet ορίζοντας ένα εύρος (range) στην read_sheet(). Σημειώστε επίσης ότι χρησιμοποιούμε τη συνάρτηση gs4_example() παρακάτω για να εντοπίσουμε ένα παράδειγμα Google Sheet που συνοδεύει το πακέτο googlesheets4.

deaths_url <- gs4_example("deaths")
deaths <- read_sheet(deaths_url, range = "A5:F15")
#> ✔ Reading from deaths.
#> ✔ Range A5:F15.
deaths
#> # A tibble: 10 × 6
#>   Name          Profession   Age `Has kids` `Date of birth`    
#>   <chr>         <chr>      <dbl> <lgl>      <dttm>             
#> 1 David Bowie   musician      69 TRUE       1947-01-08 00:00:00
#> 2 Carrie Fisher actor         60 TRUE       1956-10-21 00:00:00
#> 3 Chuck Berry   musician      90 TRUE       1926-10-18 00:00:00
#> 4 Bill Paxton   actor         61 TRUE       1955-05-17 00:00:00
#> 5 Prince        musician      57 TRUE       1958-06-07 00:00:00
#> 6 Alan Rickman  actor         69 FALSE      1946-02-21 00:00:00
#> # ℹ 4 more rows
#> # ℹ 1 more variable: `Date of death` <dttm>
…
