Η R για την Επιστήμη των Δεδομένων (2η έκδοση) - 14 Συμβολοσειρές
…
Είναι πιο σπάνιο να δείτε την separate_longer_position() εκεί έξω, αλλά ορισμένα παλαιότερα σύνολα δεδομένων χρησιμοποιούν μία αρκετά συμπαγή μορφή, όπου κάθε χαρακτήρας χρησιμοποιείται για την καταγραφή μιας τιμής:

df2 <- tibble(x = c("1211", "131", "21"))
df2 |> 
  separate_longer_position(x, width = 1)
#> # A tibble: 9 × 1
#>   x    
#>   <chr>
#> 1 1    
#> 2 2    
#> 3 1    
#> 4 1    
#> 5 1    
#> 6 3    
#> # ℹ 3 more rows
…
Σε αυτήν την ενότητα, θα σας παρουσιάσουμε συναρτήσεις που σας επιτρέπουν να εργάζεστε με μεμονωμένα γράμματα μέσα σε μία συμβολοσειρά. Θα μάθετε πώς να βρίσκετε το μήκος μιας συμβολοσειράς, να εξάγετε υποσυμβολοσειρές και να χειρίζεστε μεγάλες συμβολοσειρές σε διαγράμματα και πίνακες.

14.5.1 Μήκος

Η str_length() σας λέει τον αριθμό των γραμμάτων σε μία συμβολοσειρά:

str_length(c("a", "R for data science", NA))
#> [1]  1 18 NA

Θα μπορούσατε να τη χρησιμοποιήσετε με την count(), για να βρείτε την κατανομή των μεγεθών των ονομάτων που δίνονται σε μωρά στις ΗΠΑ, και στη συνέχεια με την filter(), για να δείτε τα μεγαλύτερα ονόματα, τα οποία τυχαίνει να έχουν 15 γράμματα7:

babynames |>
  count(length = str_length(name), wt = n)
#> # A tibble: 14 × 2
#>   length        n
#>    <int>    <int>
#> 1      2   338150
#> 2      3  8589596
#> 3      4 48506739
#> 4      5 87011607
#> 5      6 90749404
#> 6      7 72120767
#> # ℹ 8 more rows

babynames |> 
  filter(str_length(name) == 15) |> 
  count(name, wt = n, sort = TRUE)
#> # A tibble: 34 × 2
#>   name                n
#>   <chr>           <int>
#> 1 Franciscojavier   123
#> 2 Christopherjohn   118
#> 3 Johnchristopher   118
#> 4 Christopherjame   108
#> 5 Christophermich    52
#> 6 Ryanchristopher    45
#> # ℹ 28 more rows
…
Σημειώστε ότι η str_sub() δεν θα αποτύχει εάν η συμβολοσειρά είναι πολύ μικρή: απλώς θα επιστρέψει όσο το δυνατόν περισσότερα:

str_sub("a", 1, 5)
#> [1] "a"

Θα μπορούσαμε να χρησιμοποιήσουμε την str_sub() με την mutate() για να βρούμε το πρώτο και το τελευταίο γράμμα κάθε ονόματος:

babynames |> 
  mutate(
    first = str_sub(name, 1, 1),
    last = str_sub(name, -1, -1)
  )
#> # A tibble: 1,924,665 × 7
#>    year sex   name          n   prop first last 
#>   <dbl> <chr> <chr>     <int>  <dbl> <chr> <chr>
#> 1  1880 F     Mary       7065 0.0724 M     y    
#> 2  1880 F     Anna       2604 0.0267 A     a    
#> 3  1880 F     Emma       2003 0.0205 E     a    
#> 4  1880 F     Elizabeth  1939 0.0199 E     h    
#> 5  1880 F     Minnie     1746 0.0179 M     e    
#> 6  1880 F     Margaret   1578 0.0162 M     t    
#> # ℹ 1,924,659 more rows
…
